<?xml version="1.0" encoding="utf-8"?>
<!-- Generator: Adobe Illustrator 19.0.0, SVG Export Plug-In . SVG Version: 6.00 Build 0)  -->
<svg version="1.1" id="Capa_1" xmlns="http://www.w3.org/2000/svg" xmlns:xlink="http://www.w3.org/1999/xlink" x="0px" y="0px"
	 viewBox="-400 3302 398 398" style="enable-background:new -400 3302 398 398;" xml:space="preserve">
<style type="text/css">
	.st0{fill:#ED1E79;}
</style>
<g>
	<g>
		<path class="st0" d="M-12.8,3456.9l-0.2-0.2c-4.9-4.9-11.1-8.3-17.8-9.9c-38.9-96.8-148.8-143.7-245.6-104.8
			c-96.8,38.9-143.7,148.8-104.8,245.6c1.2,2.9,2.4,5.8,3.8,8.7c-3.9,2-7.5,4.5-10.6,7.6c-15.9,15.9-15.9,41.7,0,57.6c0,0,0,0,0,0
			c7.6,7.7,18,12,28.8,12h124.9c27.7,0,50.1-22.5,50.1-50.2c0-27.7-22.5-50.1-50.2-50.1c-3.8,0-7.7,0.4-11.4,1.3l-2.4,0.6
			c-3.3-10.7-9.6-20.3-18-27.6c-1.9-1.7-3.9-3.2-5.9-4.6c-11.9-37.6,9-77.8,46.6-89.7c26.6-8.4,55.7-0.6,74.5,20.1
			c-8.7,14.4-4.1,33.1,10.3,41.8c4.8,2.9,10.3,4.4,15.8,4.4h86.2c9.8,0,19.1-3.9,26-10.8C1.6,3494.5,1.6,3471.3-12.8,3456.9z
			 M-378.4,3521.4c-0.2-96.3,77.7-174.5,174-174.7c67.6-0.1,129.2,38.8,158,100h-0.4c-6.3-17.1-22.6-28.5-40.9-28.4h-1.6
			c-56.9-63.4-154.4-68.8-217.9-11.9c-42.6,38.2-60.6,96.8-46.7,152.2c-6.4,9.1-10.1,19.9-10.6,31.1
			C-373.7,3568.2-378.5,3544.9-378.4,3521.4z M-323.4,3532.1L-323.4,3532.1c0,1.3,0.1,2.6,0.4,4c-6.8,2.1-13.1,5.5-18.7,9.8
			c-0.3-1.9-0.7-3.9-0.9-5.8c-10.1-76.7,43.9-147,120.6-157c42.8-5.6,85.7,8.8,116.5,39.1c-6.2,2.8-11.7,7.1-16,12.4
			c-48.2-45.5-124.2-43.2-169.6,5c-20.9,22.2-32.6,51.4-32.7,81.9C-324,3524.8-323.8,3528.4-323.4,3532.1z M-260.6,3586L-260.6,3586
			c0.5,4,4.2,6.7,8.2,6.1c0.8-0.1,1.5-0.3,2.2-0.7c2.5-1.2,5-2.2,7.7-2.8c19.2-4.2,38.2,7.9,42.5,27.1c4.2,19.2-7.9,38.2-27.1,42.5
			c-2.3,0.5-4.7,0.8-7.1,0.8h-124.8c-14.5,0-26.3-11.8-26.3-26.3c0-14.5,11.8-26.3,26.3-26.3h1.8c4,0.3,7.4-2.7,7.7-6.7
			c0-0.6,0-1.3-0.1-1.9c-0.2-1.7-0.3-3.5-0.3-5.2c0.1-24.8,20.3-44.9,45.1-44.8C-282.8,3548-264,3564.2-260.6,3586z M-166.3,3444.3
			c-42.6-21-94.1-3.5-115,39.1c-7.9,16.1-10.6,34.4-7.7,52.1c-5.2-1.5-10.6-2.2-16-2.2h-3.7c0-0.8-0.1-1.7-0.2-2.5
			c-0.2-2.9-0.4-6-0.4-9.4c0.2-58.1,47.5-105.1,105.6-104.9c28.1,0.1,55,11.4,74.7,31.4c-1.3,3.8-2,7.7-2.2,11.6
			c-3.5,0.6-6.8,1.9-9.8,3.6C-148.2,3455.3-156.8,3448.9-166.3,3444.3z M-22.9,3498.4l-0.2,0.3c-4.2,4.2-10,6.6-16,6.5h-86
			c-8.8,0-16-7.2-16-16c0-8.8,7.2-16,16-16h1.1c4,0.3,7.4-2.8,7.7-6.7c0-0.6,0-1.2-0.1-1.8c0-0.4,0-0.9,0-1.4c0-0.4,0-1,0-1.7
			c0.2-15.9,13.2-28.7,29.1-28.5c14,0.1,25.9,10.4,28.2,24.3c0.6,4,4.2,6.7,8.2,6.1c0.8-0.1,1.5-0.3,2.2-0.7
			c1.5-0.8,3.2-1.4,4.8-1.8c1.7-0.4,3.4-0.6,5.2-0.6h2.2h0.3c5,0.6,9.7,2.8,13.3,6.4C-14.2,3475.5-14.2,3489.7-22.9,3498.4z"/>
	</g>
</g>
</svg>
