<?xml version="1.0" encoding="utf-8"?>
<!-- Generator: Adobe Illustrator 18.0.0, SVG Export Plug-In . SVG Version: 6.00 Build 0)  -->
<!DOCTYPE svg PUBLIC "-//W3C//DTD SVG 1.1//EN" "http://www.w3.org/Graphics/SVG/1.1/DTD/svg11.dtd">
<svg version="1.1" id="Layer_1" xmlns="http://www.w3.org/2000/svg" xmlns:xlink="http://www.w3.org/1999/xlink" x="0px" y="0px"
	 viewBox="0 0 51.7 80.1" enable-background="new 0 0 51.7 80.1" xml:space="preserve">
<g>
	<path fill="#E22779" d="M23.3,23.6c0,0.6,0.4,1,1,1c7.3,0,13.2,5.9,13.2,13.2c0,0.6,0.4,1,1,1s1-0.4,1-1c0-8.4-6.8-15.2-15.2-15.2
		C23.7,22.6,23.3,23,23.3,23.6z"/>
	<path fill="#E22779" d="M50.8,11.6l-2.1-9.3c0-0.1-0.1-0.2-0.1-0.3c0,0,0-0.1-0.1-0.1c0,0,0-0.1-0.1-0.1c0-0.1-0.1-0.1-0.2-0.2
		c0,0,0,0,0,0c-0.2-0.2-0.5-0.3-0.8-0.4c0,0,0,0-0.1,0c-0.1,0-0.1,0-0.2,0c-0.1,0-0.2,0-0.3,0l-9.3,2.1c-0.8,0.2-1.3,1-1.1,1.8
		c0.2,0.8,1,1.3,1.8,1.1l5.8-1.3l-8,12.7c-3.5-2-7.5-3.2-11.8-3.2c-12.9,0-23.4,10.5-23.4,23.4c0,12.4,9.7,22.6,21.9,23.3v6.1h-8.3
		c-0.8,0-1.5,0.7-1.5,1.5s0.7,1.5,1.5,1.5h8.3v7.5c0,0.8,0.7,1.5,1.5,1.5s1.5-0.7,1.5-1.5v-7.5H34c0.8,0,1.5-0.7,1.5-1.5
		s-0.7-1.5-1.5-1.5h-8.3v-6.1C38,60.3,47.7,50.2,47.7,37.8c0-7.5-3.6-14.2-9.1-18.5l8.1-12.8l1.3,5.8c0.2,0.7,0.8,1.2,1.5,1.2
		c0.1,0,0.2,0,0.3,0C50.5,13.2,51,12.4,50.8,11.6z M44.7,37.8c0,11.2-9.2,20.4-20.4,20.4S3.9,49,3.9,37.8c0-11.2,9.2-20.4,20.4-20.4
		S44.7,26.5,44.7,37.8z"/>
</g>
</svg>
