<?xml version="1.0" encoding="utf-8"?>
<!-- Generator: Adobe Illustrator 18.0.0, SVG Export Plug-In . SVG Version: 6.00 Build 0)  -->
<!DOCTYPE svg PUBLIC "-//W3C//DTD SVG 1.1//EN" "http://www.w3.org/Graphics/SVG/1.1/DTD/svg11.dtd">
<svg version="1.1" id="Layer_1" xmlns="http://www.w3.org/2000/svg" xmlns:xlink="http://www.w3.org/1999/xlink" x="0px" y="0px"
	 viewBox="0 0 85.7 59.9" enable-background="new 0 0 85.7 59.9" xml:space="preserve">
<g>
	<path fill="#E22779" d="M34.9,21.2c-2.8,0-5.1,2.3-5.1,5.1s2.3,5.1,5.1,5.1s5.1-2.3,5.1-5.1S37.7,21.2,34.9,21.2z M34.9,29.5
		c-1.7,0-3.1-1.4-3.1-3.1s1.4-3.1,3.1-3.1s3.1,1.4,3.1,3.1S36.6,29.5,34.9,29.5z"/>
	<path fill="#E22779" d="M59.1,21.2c-2.8,0-5.1,2.3-5.1,5.1s2.3,5.1,5.1,5.1s5.1-2.3,5.1-5.1S61.9,21.2,59.1,21.2z M59.1,29.5
		c-1.7,0-3.1-1.4-3.1-3.1s1.4-3.1,3.1-3.1s3.1,1.4,3.1,3.1S60.8,29.5,59.1,29.5z"/>
	<path fill="#E22779" d="M50.8,35.3C50.8,35.4,49.4,37,47,37c-2.4,0-3.8-1.5-3.8-1.6c-0.4-0.4-1-0.5-1.4-0.1c-0.4,0.4-0.5,1-0.1,1.4
		c0.1,0.1,2,2.3,5.4,2.3s5.3-2.2,5.4-2.3c0.4-0.4,0.3-1-0.1-1.4C51.8,34.9,51.2,34.9,50.8,35.3z"/>
	<path fill="#E22779" d="M69.6,17.4C64.7,7.4,54.5,0.9,43.3,0.9c-9.8,0-18.6,4.9-24,12.6c-1.2-0.4-2.5-0.7-3.8-0.7
		c-6.2,0-11.2,5-11.2,11.2c0,1.3,0.2,2.6,0.7,3.8c-2.7,2.8-4.4,6.7-4.4,10.9c0,8.7,7.1,15.8,15.8,15.8c0.3,0,0.7,0,1,0
		c2-0.1,4-0.7,5.8-1.5c0,0,0.1,0,0.1,0c0.2-0.1,0.5-0.2,0.7-0.4c0.1-0.1,0.2-0.1,0.3-0.2c0.1,0,0.1-0.1,0.2-0.1
		c5.2,4.4,11.9,6.8,18.8,6.8c4.1,0,8-0.8,11.7-2.5c2.8,1.3,5.8,2,8.8,2c11.6,0,21.1-9.5,21.1-21.1C85,28.1,78.7,19.9,69.6,17.4z
		 M7.3,24.1c0-4.5,3.7-8.2,8.2-8.2c0.7,0,1.5,0.1,2.2,0.3c-1.2,2.1-2.1,4.4-2.7,6.9c-2.8,0.2-5.4,1.2-7.5,2.7
		C7.4,25.3,7.3,24.7,7.3,24.1z M63.9,55.7c-2.8,0-5.6-0.7-8.1-2c-0.4-0.2-0.9-0.2-1.3,0c-3.5,1.6-7.2,2.5-11.1,2.5
		c-5.9,0-11.6-2-16.3-5.7c1.2-1.1,2.2-2.3,3-3.7c0.4-0.7,0.2-1.6-0.5-2.1c-0.7-0.4-1.6-0.2-2.1,0.5c-1.1,1.9-2.8,3.5-4.6,4.6
		c-0.1,0-0.1,0.1-0.2,0.1c-0.9,0.5-1.9,0.9-2.9,1.2c0,0-0.1,0-0.1,0c-0.5,0.1-1,0.2-1.5,0.3c-0.1,0-0.1,0-0.2,0
		c-0.5,0.1-1,0.1-1.6,0.1c-7.1,0-12.8-5.8-12.8-12.8c0-7,5.7-12.7,12.7-12.8c0.7,0,1.3-0.5,1.4-1.2C20.2,12.7,31,3.9,43.3,3.9
		c10.2,0,19.6,6,23.8,15.3c0.2,0.4,0.6,0.7,1,0.8c8.1,2,13.8,9.2,13.8,17.5C82,47.6,73.9,55.7,63.9,55.7z"/>
</g>
</svg>
