<?xml version="1.0" encoding="utf-8"?>
<!-- Generator: Adobe Illustrator 19.0.0, SVG Export Plug-In . SVG Version: 6.00 Build 0)  -->
<svg version="1.1" id="Layer_1" xmlns="http://www.w3.org/2000/svg" xmlns:xlink="http://www.w3.org/1999/xlink" x="0px" y="0px" width="40" height="40"
	 viewBox="0 0 40 40" style="enable-background:new 0 0 40 40;" xml:space="preserve">
<style type="text/css">
	.st0{fill:#E22779;}
</style>
<title>Artboard 2</title>
<path class="st0" d="M34,11.2c0-0.1-0.1-0.4-0.4-1.3l-0.1-0.2l-0.3-0.1c-1.9-0.4-3.5,1.1-3.6,1.2l-2.2,3.1c-2.4-0.8-5.4-1.2-8.5-1.2
	c-6,0-12,1.5-12.8,4.7H6c0,0.1,0,0.3,0,0.4c0,0.1,0,0.2,0,0.3c0,6.8,5.8,12.4,12.9,12.4c7.1,0,12.9-5.5,12.9-12.4c0-0.1,0-0.2,0-0.4
	c0-0.1,0-0.2,0-0.4h-0.1c-0.2-1.1-1.1-1.9-2.2-2.6c0.9-1.2,1.7-2.3,2-2.7c0.4-0.5,1.6-0.5,2-0.5l0.6,0.1L34,11.2z M17,18.1
	c1.5,0,2.3,0.5,2.3,0.8s-0.8,0.8-2.3,0.8s-2.3-0.5-2.3-0.8S15.6,18.1,17,18.1z M17,20.6c1.6,0,3.3-0.6,3.3-1.8c0-0.6-0.4-1-1-1.3
	c0.9,0,1.7,0.1,2.6,0.1c-0.6,0.2-1.1,0.6-1.1,1.1c0,0.9,1.3,1.4,2.5,1.4s2.5-0.5,2.5-1.4c0-0.1,0-0.3-0.1-0.4
	c1.3,0.4,2.3,0.9,3.1,1.5c-2.3,1.3-6.2,1.9-9.9,1.9c-3.8,0-7.7-0.7-9.9-1.9c1.1-0.9,3-1.6,5.3-2c-0.3,0.2-0.5,0.6-0.5,0.9
	C13.8,20,15.4,20.6,17,20.6z M24.8,18.8c-0.1,0.1-0.6,0.4-1.5,0.4s-1.5-0.3-1.5-0.3c0.1-0.1,0.6-0.4,1.5-0.4S24.8,18.8,24.8,18.8z
	 M26,17.5l1.7-2.4c0.1,0,0.1,0.1,0.2,0.1c-0.8,1.1-1.5,2-1.7,2.4C26.1,17.5,26.1,17.5,26,17.5z M18.9,13.7c3,0,5.7,0.4,7.9,1
	l-1.7,2.3l0.4,0.3c-2.2-0.6-4.7-0.8-6.8-0.8c-3.8,0-8.3,0.8-10.6,2.8c-0.6-0.5-0.9-1-1-1.6C7.5,15.1,13.3,13.7,18.9,13.7z
	 M18.9,29.5c-5.9,0-10.9-4.2-11.7-9.6c0.1,0.1,0.2,0.1,0.2,0.2c0,0-0.1,0.1-0.1,0.1l0.8,0.6c0,0,0.1-0.1,0.1-0.1
	c0.5,0.3,1.2,0.6,2,0.9c2.3,0.8,5.4,1.3,8.7,1.3c4.1,0,8.2-0.7,10.7-2.2c0,0,0,0.1,0.1,0.1l0.8-0.6c0,0-0.1-0.1-0.1-0.1
	c0.1-0.1,0.2-0.1,0.2-0.2C29.7,25.3,24.8,29.5,18.9,29.5z M30.7,17.8c-0.1,0.6-0.5,1.1-1,1.6c-0.7-0.6-1.5-1.1-2.5-1.4
	c0.3-0.5,1-1.3,1.6-2.3C29.8,16.2,30.5,16.9,30.7,17.8z M30.6,11.5c-0.3,0.4-1.2,1.6-2.1,2.8c-0.1,0-0.1-0.1-0.2-0.1l2-2.8
	c0,0,1.1-1,2.4-0.9c0,0.1,0,0.1,0.1,0.2C32.1,10.7,31.2,10.9,30.6,11.5z"/>
</svg>
