<?xml version="1.0" encoding="utf-8"?>
<!-- Generator: Adobe Illustrator 21.1.0, SVG Export Plug-In . SVG Version: 6.00 Build 0)  -->
<svg version="1.1" id="Layer_1" xmlns="http://www.w3.org/2000/svg" xmlns:xlink="http://www.w3.org/1999/xlink" x="0px" y="0px"
	 viewBox="0 0 365.2 494.4" style="enable-background:new 0 0 365.2 494.4;" xml:space="preserve">
<path d="M282.7,102.8c-2.6-0.3-5.3-0.4-8-0.4c-4,0-8,0.4-11.9,1c2.4-5.2,3.9-10.9,3.9-17v-7c0-13.8-11.2-25-25-25
	c-1.8,0-3.6,0.3-5.3,0.6c3.7-16.7,13.2-31.8,27.1-42.2L253.9,0c-18.1,13.6-30.1,33.8-33.8,55.9c-2.7-1-5.5-1.5-8.4-1.5
	c-13.8,0-25,11.2-25,25v7c0,6.1,1.5,11.8,3.9,17c-3.9-0.6-7.9-1-11.9-1c-10.4,0-20.3,2.1-29.4,5.7L76.8,3.4L39.7,28.1l68.6,106.8
	L24.9,66.6L0,103.9l98.9,82.4c0.3,6.9,1.5,13.6,3.6,20.1H88.2l28.4,104h39.9l8,32h38.2v88.8c-25.9,1.7-80,7.9-80,31.2
	c0,25.3,65.4,32,104,32s104-6.7,104-32c0-23.3-54.1-29.6-80-31.2v-88.8h38.2l8-32h39.9l28.4-104h-14.3c2.4-7.7,3.8-15.7,3.8-24
	c0-35.8-23.6-66.1-56-76.3 M202.7,79.4c0-4.9,4-9,9-9c2.4,0,4.7,1,6.3,2.6l8.7,8.7l8.7-8.7c1.7-1.7,4-2.6,6.3-2.6c4.9,0,9,4,9,9v7
	c0,13.2-10.8,24-24,24c-13.2,0-24-10.8-24-24V79.4z M82.7,134.6l21.9,17.8c-1.8,4.5-3.3,9.3-4.3,14.2L82.7,152V134.6z M66.7,138.6
	l-16-13.3v-16.9l16,13.1V138.6z M121.8,126.2l-9.2-14.4l5.3-21.1l17.1,24.7C130.2,118.6,125.8,122.2,121.8,126.2z M100.7,93.4
	L89.5,76l4.8-19.2l11.4,16.5L100.7,93.4z M72.6,25.4l9.6,13.9l-4.5,18.3l-16-24.9L72.6,25.4z M28.5,90.2l6.2,5.1V112l-13.4-11.1
	L28.5,90.2z M114.7,182.4c0-35.3,28.7-64,64-64c7.4,0,14.7,1.3,21.6,3.8c-37.6,10.8-65.9,44-69.2,84.2h-11.6
	C116.4,198.8,114.7,190.8,114.7,182.4z M109.2,222.4h93.5v24h16v-40h-71.6c4-40.4,38.2-72,79.6-72c1.8,0,3.5,0.2,5.3,0.3l0,0l0,0
	c39,2.6,70.4,33.1,74.2,71.7h-7.5v40c0,4.4-3.6,8-8,8s-8-3.6-8-8v-16c0-13.2-10.8-24-24-24c-13.2,0-24,10.8-24,24v64
	c0,4.4-3.6,8-8,8c-4.4,0-8-3.6-8-8v-32h-16v32h-73.9L109.2,222.4z M250.7,454.4v-7.2c39.4,2.6,60.2,10.7,63.7,15.2
	c-4.5,6-36,16-87.7,16s-83.2-10-87.7-16c3.5-4.6,24.3-12.7,63.7-15.2v7.2h16v-112h16v112H250.7z M276.5,326.4h-99.6l-4-16h36
	c4.4,4.9,10.7,8,17.8,8s13.5-3.1,17.9-8h35.9L276.5,326.4z M324.6,294.4h-73.9v-64c0-4.4,3.6-8,8-8s8,3.6,8,8v16
	c0,13.2,10.8,24,24,24c13.2,0,24-10.8,24-24v-24h29.5L324.6,294.4z M338.7,182.4c0,8.4-1.7,16.4-4.8,24h-11.7
	c-3.3-40.2-31.5-73.4-69.2-84.2c6.9-2.5,14.1-3.8,21.6-3.8C310,118.4,338.7,147.1,338.7,182.4z"/>
</svg>