<?xml version="1.0" encoding="utf-8"?>
<!-- Generator: Adobe Illustrator 18.0.0, SVG Export Plug-In . SVG Version: 6.00 Build 0)  -->
<!DOCTYPE svg PUBLIC "-//W3C//DTD SVG 1.1//EN" "http://www.w3.org/Graphics/SVG/1.1/DTD/svg11.dtd">
<svg version="1.1" id="Layer_1" xmlns="http://www.w3.org/2000/svg" xmlns:xlink="http://www.w3.org/1999/xlink" x="0px" y="0px"
	 viewBox="0 0 72 72.5" enable-background="new 0 0 72 72.5" xml:space="preserve">
<g>
	<path fill="#E22779" d="M71.2,36.6C71.2,17.1,55.4,1.3,36,1.3S0.8,17.1,0.8,36.6S16.6,71.8,36,71.8S71.2,56,71.2,36.6z M36,68.8
		c-17.8,0-32.2-14.5-32.2-32.2S18.2,4.3,36,4.3s32.2,14.5,32.2,32.2S53.8,68.8,36,68.8z"/>
	<path fill="#E22779" d="M49.4,57.3c0.5-0.3,0.6-0.9,0.3-1.4c-0.3-0.5-0.9-0.6-1.4-0.3c-3.7,2.4-7.9,3.6-12.3,3.6
		c-4,0-7.9-1.1-11.4-3.1c-0.5-0.3-1.1-0.1-1.4,0.4s-0.1,1.1,0.4,1.4c3.7,2.2,8,3.3,12.4,3.3C40.8,61.2,45.4,59.9,49.4,57.3z"/>
	<path fill="#E22779" d="M16.4,47.9C16.4,47.9,16.4,47.9,16.4,47.9c-2-3.4-3-7.4-3-11.3C13.3,24,23.5,13.9,36,13.9
		S58.7,24,58.7,36.6c0,4-1,7.9-3,11.3c0,0,0,0,0,0c-0.3,0.5-0.1,1.1,0.4,1.4l4.2,2.4c0.2,0.1,0.3,0.1,0.5,0.1c0.3,0,0.7-0.2,0.9-0.5
		c0.3-0.5,0.1-1.1-0.4-1.4L57.9,48c1.7-3.2,2.7-6.8,2.8-10.5h3.9c0.6,0,1-0.4,1-1s-0.4-1-1-1h-3.9c-0.2-3.8-1.1-7.3-2.8-10.5l3.4-2
		c0.5-0.3,0.6-0.9,0.4-1.4c-0.3-0.5-0.9-0.6-1.4-0.4l-3.4,2c-2-3.1-4.6-5.7-7.7-7.7l2-3.4c0.3-0.5,0.1-1.1-0.4-1.4
		c-0.5-0.3-1.1-0.1-1.4,0.4l-2,3.4C44.3,13,40.8,12,37,11.9V8c0-0.6-0.4-1-1-1s-1,0.4-1,1v3.9c-3.8,0.2-7.3,1.1-10.5,2.8l-2-3.4
		c-0.3-0.5-0.9-0.6-1.4-0.4c-0.5,0.3-0.6,0.9-0.4,1.4l2,3.4c-3.1,2-5.7,4.6-7.7,7.7l-3.4-2c-0.5-0.3-1.1-0.1-1.4,0.4
		s-0.1,1.1,0.4,1.4l3.4,2c-1.7,3.2-2.7,6.7-2.8,10.5H7.5c-0.6,0-1,0.4-1,1s0.4,1,1,1h3.9c0.1,3.7,1.1,7.2,2.8,10.5L10.8,50
		c-0.5,0.3-0.6,0.9-0.4,1.4c0.2,0.3,0.5,0.5,0.9,0.5c0.2,0,0.3,0,0.5-0.1l4.2-2.4C16.5,49,16.6,48.4,16.4,47.9z"/>
	<path fill="#E22779" d="M48.8,21.1c-0.6-0.5-1.6-0.5-2.1,0.2l-9.8,11.6c-0.3-0.1-0.6-0.1-0.9-0.1c-2.1,0-3.8,1.7-3.8,3.8
		c0,0.6,0.1,1.1,0.3,1.5l-2.1,2.5c-0.5,0.6-0.5,1.6,0.2,2.1c0.3,0.2,0.6,0.4,1,0.4c0.4,0,0.9-0.2,1.1-0.5l2-2.4
		c0.4,0.1,0.8,0.2,1.2,0.2c2.1,0,3.8-1.7,3.8-3.8c0-0.6-0.2-1.2-0.5-1.8L49,23.2C49.5,22.6,49.5,21.7,48.8,21.1z"/>
</g>
</svg>
