<?xml version="1.0" encoding="utf-8"?>
<!-- Generator: Adobe Illustrator 18.0.0, SVG Export Plug-In . SVG Version: 6.00 Build 0)  -->
<!DOCTYPE svg PUBLIC "-//W3C//DTD SVG 1.1//EN" "http://www.w3.org/Graphics/SVG/1.1/DTD/svg11.dtd">
<svg version="1.1" id="Layer_1" xmlns="http://www.w3.org/2000/svg" xmlns:xlink="http://www.w3.org/1999/xlink" x="0px" y="0px"
	 viewBox="0 0 70 82.6" enable-background="new 0 0 70 82.6" xml:space="preserve">
<g>
	<path fill="#E22779" d="M24.9,38c0.2,0.1,0.3,0.1,0.5,0.1c0.3,0,0.7-0.2,0.9-0.5l16.6-28c0.3-0.5,0.1-1.1-0.3-1.4
		C42,8,41.4,8.1,41.2,8.6l-16.6,28C24.2,37.1,24.4,37.7,24.9,38z"/>
	<path fill="#E22779" d="M64.5,68.9h-6.9c2.8-5.2,4.2-11,4.2-16.9c0-11.4-5.2-21.8-14.3-28.7c0,0-0.1,0-0.1-0.1l0,0l4.7-7.8l1.3-2.2
		c1-1.8,1.2-3.9,0.3-5.9c-0.8-1.9-2.3-3.6-4.5-4.8c-2.1-1.2-4.5-1.8-6.7-1.5c-2.4,0.3-4.2,1.4-5.2,3.2l-2.9,4.7l-21,35
		c-0.1,0.1-0.1,0.2-0.2,0.3c0,0,0,0,0,0c-0.8,1.6-0.8,3.5,0.1,5.4c0.8,2,2.5,3.7,4.5,4.9c1.7,1,3.6,1.5,5.4,1.5
		c2.2,0,4.1-0.8,5.3-2.1c0.3-0.1,0.5-0.3,0.6-0.6l9-15c2.9,3.9,4.4,8.6,4.4,13.5c0,6.4-2.7,12.6-7.5,16.9H5.4
		c-2.6,0-4.7,2.1-4.7,4.7v3.5c0,2.6,2.1,4.7,4.7,4.7h59.1c2.6,0,4.7-2.1,4.7-4.7v-3.5C69.2,71,67.1,68.9,64.5,68.9z M37,10.6
		l2.9-4.7c0.6-1,1.6-1.6,3-1.8c1.6-0.2,3.3,0.2,4.8,1.1c1.5,0.9,2.7,2.1,3.2,3.4c0.5,1.1,0.4,2.3-0.2,3.3L29.4,47.4c0,0,0,0,0,0
		c-0.8-2-2.5-3.7-4.5-4.9c-1.7-1-3.6-1.5-5.4-1.5c-0.2,0-0.5,0-0.7,0L37,10.6z M23.2,54.3c-1.5,0-3-0.4-4.4-1.2
		c-1.7-1-3-2.4-3.7-3.9c-0.4-1-0.6-1.9-0.4-2.8c0.1-0.5,0.2-0.9,0.4-1.3c0.5-0.8,1.2-1.4,2.2-1.8c0.6-0.2,1.3-0.4,2.1-0.4
		c1.5,0,3,0.4,4.4,1.2c1.7,1,3,2.4,3.7,4c0.2,0.5,0.4,1.1,0.4,1.6c0,0,0,0,0,0c0.1,0.9-0.1,1.7-0.5,2.4c-0.3,0.5-0.6,0.8-1,1.1
		C25.7,53.9,24.5,54.3,23.2,54.3z M45.7,52c0-5.8-1.9-11.3-5.4-15.8c-0.1-0.1-0.2-0.2-0.4-0.3l6-10c8.2,6.3,13,15.8,13,26.2
		c0,6-1.6,11.8-4.7,16.9H39.4C43.4,64.2,45.7,58.3,45.7,52z M66.2,77.1c0,0.9-0.8,1.7-1.7,1.7H5.4c-0.9,0-1.7-0.8-1.7-1.7v-3.5
		c0-0.9,0.8-1.7,1.7-1.7h30.4c0,0,0,0,0,0c0,0,0,0,0,0H55c0,0,0,0,0,0s0,0,0,0h9.5c0.9,0,1.7,0.8,1.7,1.7V77.1z"/>
	<path fill="#E22779" d="M23.2,45.4c-1.1-0.7-2.4-1-3.5-0.9c-1.3,0.1-2.3,0.6-2.8,1.6c-0.3,0.5-0.1,1.1,0.4,1.4
		c0.5,0.3,1.1,0.1,1.4-0.4c0.2-0.3,0.6-0.5,1.2-0.5c0.7,0,1.6,0.2,2.4,0.7c0.8,0.5,1.4,1.1,1.8,1.8c0.3,0.5,0.3,1,0.1,1.3
		c-0.3,0.5-0.1,1.1,0.4,1.4c0.2,0.1,0.3,0.1,0.5,0.1c0.3,0,0.7-0.2,0.9-0.5c0.5-0.9,0.5-2.1-0.1-3.2C25.2,47,24.3,46.1,23.2,45.4z"
		/>
</g>
</svg>
