<?xml version="1.0" encoding="utf-8"?>
<!-- Generator: Adobe Illustrator 19.0.0, SVG Export Plug-In . SVG Version: 6.00 Build 0)  -->
<svg version="1.1" id="Layer_1" xmlns="http://www.w3.org/2000/svg" xmlns:xlink="http://www.w3.org/1999/xlink" x="0px" y="0px"
	 viewBox="-189 278.3 40 40" style="enable-background:new -189 278.3 40 40;" xml:space="preserve">
<style type="text/css">
	.st0{fill:#E2297A;stroke:#010101;stroke-miterlimit:10;}
</style>
	<g>
	<g>
		<path class="st0" d="M-157.5,286.8c0-0.5-0.4-0.8-0.8-0.8h-1.6c-1.1,0-2.1,0.3-2.9,0.8c-0.8-1.3-2.2-2.2-2.4-2.3
			c-0.3-0.2-0.6-0.2-0.8,0c-0.3,0.2-2.9,1.8-2.9,4c0,1,0.5,1.8,1,2.5h-3.8l-0.4-4.3l0,0c-0.1-1.3-1.2-2.2-2.4-2.2h-5.1
			c-0.5,0-0.8,0.4-0.8,0.8s0.4,0.8,0.8,0.8h5.1c0.4,0,0.8,0.3,0.8,0.7l0.3,4.2h-3c-0.5,0-0.8,0.4-0.8,0.8v2.5h-0.8
			c-0.5,0-0.8,0.4-0.8,0.8c0,0.4,0.4,0.8,0.8,0.8h0.8v1.8c-1,0.3-1.6,1.3-1.6,2.3c0,1.2,0,8.9,0,10c0,1.4,1.1,2.5,2.5,2.5h13.1
			c1.4,0,2.5-1.1,2.5-2.5c0-0.6,0-9.4,0-10c0-1.1-0.7-2-1.6-2.3v-1.8h0.8c0.5,0,0.8-0.4,0.8-0.8c0-0.4-0.4-0.8-0.8-0.8h-0.8v-1.7
			C-159.7,292-157.5,289.6-157.5,286.8z M-165.7,286.1c0.5,0.4,1.2,1,1.5,1.7c-0.7,0.8-1.2,1.8-1.4,2.9c-0.7-0.5-1.7-1.4-1.7-2.3
			C-167.4,287.5-166.4,286.6-165.7,286.1z M-175.6,292.5c1.3,0,10.3,0,11.5,0v1.6h-11.5V292.5z M-175.6,295.8h11.5v1.6h-11.5V295.8z
			 M-177.2,299.9c0-0.5,0.4-0.8,0.8-0.8h3.6l0.3,4.1c-1.3,0.2-2.6,0-3.8-0.4l-1-0.4L-177.2,299.9L-177.2,299.9z M-162.4,309.8
			c0,0.5-0.4,0.8-0.8,0.8h-13.1c-0.5,0-0.8-0.4-0.8-0.8V304l0.4,0.2c1.1,0.4,2.2,0.6,3.3,0.6c1.4,0,2.8-0.3,4-0.9
			c1.9-0.9,4.1-1,6-0.3l1,0.4V309.8L-162.4,309.8z M-162.4,302.3l-0.4-0.2c-2.4-1-5.1-0.8-7.4,0.3c-0.2,0.1-0.4,0.2-0.6,0.3
			l-0.3-3.6h7.9c0.5,0,0.8,0.4,0.8,0.8V302.3z M-163.3,290.9h-0.7c0.4-1.9,2-3.3,4-3.3h0.7C-159.6,289.5-161.3,290.9-163.3,290.9z"
		/>
	</g>
</g>
</svg>
