<?xml version="1.0" encoding="utf-8"?>
<!-- Generator: Adobe Illustrator 18.0.0, SVG Export Plug-In . SVG Version: 6.00 Build 0)  -->
<!DOCTYPE svg PUBLIC "-//W3C//DTD SVG 1.1//EN" "http://www.w3.org/Graphics/SVG/1.1/DTD/svg11.dtd">
<svg version="1.1" id="Layer_1" xmlns="http://www.w3.org/2000/svg" xmlns:xlink="http://www.w3.org/1999/xlink" x="0px" y="0px"
	 viewBox="0 0 69.2 53.6" enable-background="new 0 0 69.2 53.6" xml:space="preserve">
<g>
	<path fill="#E22779" d="M14.9,9.6c0.6,0,1-0.4,1-1s-0.4-1-1-1c-3.7,0-6.7,3-6.7,6.7v25.3c0,3.7,3,6.7,6.7,6.7c0.6,0,1-0.4,1-1
		s-0.4-1-1-1c-2.6,0-4.7-2.1-4.7-4.7V14.2C10.3,11.7,12.4,9.6,14.9,9.6z"/>
	<path fill="#E22779" d="M67.7,18.2h-3.3v-7.5c0-5.5-4.5-10-10-10H7.8c-4,0-7.2,3.2-7.2,7.2v37.9c0,4,3.2,7.2,7.2,7.2h46.7
		c5.5,0,10-4.5,10-10v-7.5h3.3c0.6,0,1-0.4,1-1V19.2C68.7,18.7,68.3,18.2,67.7,18.2z M61.4,10.7v7.5h-5.7v-7.5c0-2.8-1.2-5.3-3.1-7
		h1.8C58.3,3.7,61.4,6.9,61.4,10.7z M47.5,18.2c-3.7,0-6.7,3-6.7,6.7v3.9c0,3.7,3,6.7,6.7,6.7h6.2V43c0,3.2-2,5.9-4.8,7H7.8
		c-2.3,0-4.2-1.9-4.2-4.2V7.9c0-2.3,1.9-4.2,4.2-4.2h41.1c2.8,1.1,4.8,3.8,4.8,7v7.5H47.5z M61.4,43c0,3.9-3.1,7-7,7h-1.8
		c1.9-1.7,3.1-4.2,3.1-7v-7.5h5.7V43z M66.7,33.5H47.5c-2.6,0-4.7-2.1-4.7-4.7v-3.9c0-2.6,2.1-4.7,4.7-4.7h7.2c0,0,0,0,0,0s0,0,0,0
		h12V33.5z"/>
	<circle fill="#E22779" cx="50.2" cy="26.9" r="2.8"/>
</g>
</svg>
