<?xml version="1.0" encoding="utf-8"?>
<!-- Generator: Adobe Illustrator 19.0.0, SVG Export Plug-In . SVG Version: 6.00 Build 0)  -->
<svg version="1.1" id="Layer_1" xmlns="http://www.w3.org/2000/svg" xmlns:xlink="http://www.w3.org/1999/xlink" x="0px" y="0px"
	 viewBox="0 0 40 40" style="enable-background:new 0 0 40 40;" xml:space="preserve">
<style type="text/css">
	.st0{fill:#E22779;}
</style>
<g id="XMLID_6_">
	<path id="XMLID_8_" class="st0" d="M32.5,17.9c0-2.6-1.9-4.8-4.5-5.2c-1.2-3.7-4.6-6.1-8.4-6.1c-3.9,0-7.3,2.6-8.5,6.3
		c-2.2,0.7-3.7,2.7-3.7,5c0,1.6,0.8,3.2,2.1,4.2l1.6,9.1c0,0.3,0.3,0.5,0.6,0.5h15.9c0.3,0,0.6-0.2,0.6-0.5l1.5-8.5
		C31.4,21.7,32.5,19.9,32.5,17.9z M27.1,30.5h-1.6l0.7-5.8c0-0.2-0.1-0.4-0.4-0.4c-0.2,0-0.4,0.1-0.4,0.4l-0.7,5.9h-1.9l0.4-5.8
		c0-0.2-0.2-0.4-0.4-0.4c-0.2,0-0.4,0.2-0.4,0.4L22,30.5h-1.9v-5.8c0-0.2-0.2-0.4-0.4-0.4s-0.4,0.2-0.4,0.4v5.8h-1.9L17,24.6
		c0-0.2-0.2-0.4-0.4-0.4c-0.2,0-0.4,0.2-0.4,0.4l0.4,5.8h-1.9l-0.7-5.9c0-0.2-0.2-0.4-0.4-0.4c-0.2,0-0.4,0.2-0.4,0.4l0.7,5.8h-1.6
		l-1.4-8h17.7L27.1,30.5z M29.5,21.3c-0.1,0-0.2-0.1-0.3-0.1H10.3c-1-0.8-1.6-2-1.6-3.2c0-1.9,1.3-3.5,3.1-3.9
		c0.2,0,0.4-0.2,0.4-0.4c0.9-3.4,3.9-5.7,7.4-5.7c3.5,0,6.5,2.3,7.4,5.7c0.1,0.2,0.3,0.4,0.5,0.4c2.1,0.2,3.8,1.9,3.8,4.1
		C31.3,19.3,30.6,20.5,29.5,21.3z"/>
	<path id="XMLID_1_" class="st0" d="M19.2,14.1c-2.2,0-4,1.8-4,4c0,0.2,0.2,0.4,0.4,0.4c0.2,0,0.4-0.2,0.4-0.4
		c0-1.8,1.4-3.2,3.2-3.2s3.2,1.4,3.2,3.2c0,0.2,0.2,0.4,0.4,0.4c0.2,0,0.4-0.2,0.4-0.4C23.2,15.9,21.4,14.1,19.2,14.1z"/>
</g>
</svg>
