<?xml version="1.0" encoding="utf-8"?>
<!-- Generator: Adobe Illustrator 19.0.0, SVG Export Plug-In . SVG Version: 6.00 Build 0)  -->
<svg version="1.1" id="Layer_1" xmlns="http://www.w3.org/2000/svg" xmlns:xlink="http://www.w3.org/1999/xlink" x="0px" y="0px"
	 viewBox="-209 251 420 500" style="enable-background:new -209 251 420 500;" xml:space="preserve">
<style type="text/css">
	.st0{fill:#EA1E78;}
</style>
<path class="st0" d="M207,302.9C204.3,262,76.5,251,0.5,251c-76.3,0-205.2,11.1-206.5,52.5h-0.1v113.2c-0.4,1.6-0.9,3.1-0.9,4.8
	s0.5,3.2,0.9,4.8v264.2h1.1c11.2,39.2,108.9,59.7,205.6,59.7c97.1,0,195.3-20.7,205.6-60.3h1v-387H207z M0.5,273.7
	c113.4,0,178.9,19.7,184,29.7v0.2c-5.1,11.1-70.5,30.9-184,30.9s-178.8-19.7-183.9-29.7v-0.2C-178.3,293.4-112.9,273.7,0.5,273.7z
	 M184.5,330.6V394c-40.7-21.1-127.2-27.5-184.4-27.5c-56.8,0-142.5,6.4-183.5,27.1v-63c40.6,20.4,126.9,26.6,184,26.6
	S143.9,351,184.5,330.6z M0.5,727.4c-119,0-184-29.4-184-44.5v-29.6c36.1,23,110.3,35,184,35s147.9-12,184-35v29.6
	C184.5,698,119.6,727.4,0.5,727.4z M0.5,665.5c-119,0-184-29.4-184-44.5V449.3c41,20.7,126.7,27.1,183.5,27.1
	c15.9,0,22-0.4,33.3-1.2l8.7-0.6c6.3-0.4,11-5.8,10.6-12.1c-0.4-6.2-5.9-11.3-12.1-10.6l-8.8,0.6c-10.8,0.7-16.6,1.1-31.7,1.1
	c-109.3,0-174.9-19.4-183.5-30.5v-2.9c8.6-11.6,74.2-31.1,183.5-31.1c114,0,180.7,21.2,184.4,32.2c0,10.5-18.5,18.6-49.4,21.5
	c-6.2,0.6-10.8,6.1-10.2,12.4c0.6,6.3,6.4,10.6,12.4,10.2c21.5-2.1,36.7-6.3,47.3-11.8V621C184.5,636.1,119.6,665.5,0.5,665.5z"/>
</svg>
