<?xml version="1.0" encoding="utf-8"?>
<!-- Generator: Adobe Illustrator 19.0.0, SVG Export Plug-In . SVG Version: 6.00 Build 0)  -->
<svg version="1.1" id="Layer_1" xmlns="http://www.w3.org/2000/svg" xmlns:xlink="http://www.w3.org/1999/xlink" x="0px" y="0px"
	 viewBox="-164 251 330 500" style="enable-background:new -164 251 330 500;" xml:space="preserve">
<style type="text/css">
	.st0{fill:#EA1E78;}
</style>
<path class="st0" d="M160.3,291.5c0-32-100.5-40.5-159.8-40.5c-59.4,0-159.9,8.5-159.9,40.5c0,0.1,0,0.1,0,0.1l0,0
	c0.7,38.3,15.7,64.7,43.2,76.5V368c1.6,1.2,3.4,2.2,5.6,3.2l-0.4,1.1c20.6,7,34,32.5,37.8,52.9c4,24.9,19.6,49.7,43.7,62.3
	c0,0.5-0.1,1,0,1.6c8.5,48.2,10.2,99.7,5.8,156.4c-52.7,4.9-90.1,25.6-90.1,52.1c0,30.4,49.1,53.3,114.2,53.3s114.2-22.9,114.2-53.3
	c0-26.1-36.4-46.6-88-51.9c-4.7-56.6-3.1-107.9,5-156c25.1-12.3,41.2-37.7,45.2-62.9c3.8-20.7,17.2-46.1,37.8-53.1l-0.4-1.2
	c4.4-1.7,8-3.6,10.5-5.9C158.7,348.2,159.9,305.9,160.3,291.5L160.3,291.5C160.3,291.6,160.3,291.6,160.3,291.5z M0.5,267.2
	c89.1,0,140.9,16,143.7,24.1c-2.8,8.6-54.7,24.6-143.7,24.6c-88.8,0-140.5-15.9-143.7-24.1c0-0.1,0-0.1,0-0.2
	C-140.2,283.1-88.4,267.2,0.5,267.2z M-141,312.2c31.8,15.2,97.7,19.9,141.4,19.9c43.9,0,110.3-4.7,141.9-20.1
	c-2.9,17.7-9.5,30.1-20.1,37.7c-19.6-13-80-15.3-118.8-15.3c-39.2,0-100.4,2.3-119.3,15.7C-128.8,342.5-137.2,329.8-141,312.2z
	 M3.5,367.8c-52.2,0-86.3-4.6-101.6-8.6c15.3-4,49.4-8.6,101.6-8.6s86.3,4.6,101.6,8.6C89.7,363.2,55.6,367.8,3.5,367.8z M28.6,664
	c14.8,3.8,22.7,9.8,22.7,13.7c0,6-19.3,17-50.9,17s-50.9-11-50.9-17c0-4.1,9.2-10.9,26.2-14.5c4.3,10.9,13.7,17.1,26.7,17.1
	C15.3,680.3,24.3,674.4,28.6,664z M98.5,697.7c0,17.5-40.3,37.1-98.1,37.1s-98.1-19.5-98.1-37.1c0-9.5,12.1-19.5,32.1-26.7
	c-0.7,2.1-1.2,4.3-1.2,6.7c0,21.8,33.7,33.2,67.1,33.2s67.1-11.4,67.1-33.2c0-2.4-0.4-4.6-1.2-6.7C86.4,678.2,98.5,688.2,98.5,697.7
	z M11.2,656.4c0.1,1.3,0.7,2.5,1.3,3.6c-2,2.8-5.1,4.2-10.1,4.2c-4.1,0-8.3-0.8-10.8-5.1c5.6-60.1,4.1-114-4.1-164.9
	c3.7,0.9,7.5,1.2,11.5,1.5v1.9c5.5,0,10.7-0.6,15.7-1.6C7.1,545.6,5.8,598.1,11.2,656.4z M61.1,424.2c-4.2,26.7-24.8,53.5-56.2,56.6
	V480c-34.8,0-57.6-28.8-62.1-57.4c-2.6-14.5-9.2-30.2-18.9-42.9c25.4,3.4,56.4,4.2,79.6,4.2c22.6,0,52.5-0.8,77.5-4
	C70.6,393,63.8,409.2,61.1,424.2z"/>
</svg>
