<?xml version="1.0" encoding="utf-8"?>
<svg version="1.1" id="Layer_1" xmlns="http://www.w3.org/2000/svg" xmlns:xlink="http://www.w3.org/1999/xlink" x="0px" y="0px"
	 viewBox="-92 141.6 234 311.8" style="enable-background:new -92 141.6 234 311.8;" xml:space="preserve">
<style type="text/css">
	.st0{fill:#E12779;}
</style>
	<path class="st0" d="M98.3,304.9c0-0.1,0-0.3,0-0.4c-0.8-12.1-8.4-23.1-21.2-31.4v-23.7c0-8.1-4.9-15.5-13.7-21.1v-60.7
	c0-2.8,0-6.7-1.8-10c-3.6-6.6-11.2-10.3-21.2-10.3c-8.4,0-18,2.6-26.9,7.3c-19.2,10.1-26,25.9-26,37.4v36.3
	c-8.6,5.5-13.4,12.5-13.6,20.4c0,0.3-0.1,0.5-0.1,0.8v23.8c-12.7,8.4-20.3,19.3-21.1,31.3c0,0.1,0,0.3,0,0.5c0,0.1,0,0.3,0,0.5
	c-0.1,0.4-0.1,0.9-0.1,1.4v92c0,0.8,0.2,1.6,0.5,2.3c3.5,24.7,34.2,43,72.6,43c38.5,0,69.2-18.5,72.6-43.3c0.3-0.6,0.4-1.3,0.4-2.1
	v-92C98.4,306.2,98.3,305.5,98.3,304.9z M-15.2,262.9c9,7.3,23.6,11.9,40.5,11.9c16.9,0,31.5-4.7,40.4-11.9v38.2
	c-0.1,0.2-0.1,0.4-0.1,0.7c-1,9-17.5,18.6-40.3,18.6s-39.3-9.6-40.3-18.6c0-0.3-0.1-0.5-0.1-0.8L-15.2,262.9L-15.2,262.9z
	 M-1.5,199.7c3.1,1.5,6.8,2.3,11.2,2.4c0.2,0,0.4,0,0.6,0c7.7,0,16.5-2.4,24.8-6.8c6.8-3.6,12.6-8.2,16.9-13.2v55
	c0,0.1-0.1,0.3-0.1,0.4c-0.6,5.5-11.7,11.6-26.7,11.6c-13.6,0-24.1-4.9-26.7-9.7L-1.5,199.7L-1.5,199.7z M18.6,164.6
	c7.3-3.8,15.1-6,21.7-6c5.7,0,9.9,1.6,11.4,4.4c0.3,0.5,0.4,1.8,0.4,2.9c-0.2,2.5-1.2,5.3-3.2,8.2c-3.6,5.6-9.8,10.7-17.2,14.6
	c-7.4,3.9-15.2,5.8-21.8,5.9c-5.4-0.1-9.7-1.9-10.8-3.8c-0.9-1.4,0.2-5.6,1.6-8.2C4.4,176.2,7.7,170.3,18.6,164.6z M-15.1,249.4
	c0-2.3,1-4.5,2.7-6.8c3.9,10.5,19.4,17.8,37.7,17.8c18.7,0,33.6-7.5,37.2-18.4c2.1,2.4,3.3,4.9,3.3,7.3v2.6
	c-5.4,8.7-21.7,15.3-40.4,15.3c-18.8,0-35.2-6.6-40.5-15.4V250C-15.2,249.8-15.1,249.6-15.1,249.4z M-36.3,306.8
	c0-0.4,0-0.8,0.1-1.2c0-0.1,0-0.3,0-0.5c0.5-6.4,4-12.5,9.9-17.8v15c0,0.8,0.1,1.5,0.5,2.2c3,15.6,24.6,27.1,51.3,27.1
	s48.3-11.6,51.3-27.1c0.3-0.7,0.4-1.4,0.4-2.1v-15.1c6,5.4,9.5,11.7,9.9,18c0,0.1,0,0.3,0,0.4c0,0.4,0.1,0.8,0.1,1.2v5.3
	c-6.8,16.7-31.9,29.2-61.7,29.2c-30,0-55.2-12.5-61.8-29.4V308C-36.4,307.6-36.3,307.2-36.3,306.8z M86.9,398.3
	c-1.7,19.1-29.3,34.5-61.6,34.5s-59.9-15.5-61.6-34.5c-0.1-0.4-0.1-0.9-0.3-1.3v-71.4c12.3,13.8,35.4,23.2,61.8,23.2
	c26.4,0,49.5-9.3,61.7-23.1v71.7C87,397.6,86.9,398,86.9,398.3z"/>
</svg>
