<?xml version="1.0" encoding="utf-8"?>
<!-- Generator: Adobe Illustrator 19.0.0, SVG Export Plug-In . SVG Version: 6.00 Build 0)  -->
<svg version="1.1" id="Layer_1" xmlns="http://www.w3.org/2000/svg" xmlns:xlink="http://www.w3.org/1999/xlink" x="0px" y="0px"
	 viewBox="0 0 200 200" style="enable-background:new 0 0 200 200;" xml:space="preserve">
<g id="XMLID_3_">
	<path id="XMLID_16_" d="M142.1,95.6c2,0,3.7,0.7,5.2,2c1.5,1.4,2.3,3,2.4,4.8v1.8c0,1.7-0.5,3.2-1.6,4.5c-1,1.3-2.3,2.2-3.7,2.6
		v15.7c0,1.4-0.2,2.6-0.6,3.7c-0.4,1.1-1,2.1-1.8,2.8v4c0,2.2-0.8,4.1-2.4,5.7c-1.6,1.6-3.5,2.4-5.7,2.4h-8.1
		c-2.1,0-3.9-0.7-5.4-2.1c-1.5-1.4-2.4-3.1-2.7-5H88c-0.2,2-1.1,3.6-2.7,5c-1.5,1.4-3.4,2.1-5.4,2.1h-8.1c-2.2,0-4.1-0.8-5.7-2.4
		c-1.6-1.6-2.4-3.5-2.4-5.7v-4c-0.8-0.9-1.4-2-1.8-3.1c-0.4-1.1-0.6-2.3-0.6-3.5v-15.5c-1.8-0.2-3.4-1-4.5-2.4
		c-1.2-1.3-1.8-2.9-1.8-4.7v-1.8c0-2,0.7-3.7,2.1-5.1c1.4-1.4,3.1-2.2,5-2.3H66l4.2-10.8c0.7-1.8,1.8-3.2,3.5-4.3s3.5-1.7,5.4-1.7
		h15.7v-0.8c0-0.2,0.1-0.5,0.3-0.7c0.2-0.2,0.5-0.3,0.8-0.3h0.3v-4.2c0-1.6,0.6-3,1.7-4.1c1.1-1.1,2.5-1.7,4-1.7h0.6
		c1.5,0,2.9,0.6,4,1.7c1.1,1.1,1.7,2.5,1.7,4.1V77h0.3c0.3,0,0.6,0.1,0.8,0.3c0.2,0.2,0.3,0.4,0.3,0.7v0.8h16.5c2,0,3.8,0.5,5.4,1.6
		c1.7,1.1,2.8,2.5,3.5,4.4l4.2,10.8H142.1z M145.5,104.6c-0.1-1.2-0.2-1.8-0.5-1.8c0-0.9-0.3-1.7-1-2.4c-0.7-0.7-1.5-1-2.4-1h-3.7
		c-0.2,0-0.5,0-0.8,0.1s-0.5,0.2-0.8,0.3L131.1,86c-0.4-1-1.1-1.9-2.1-2.5c-1-0.6-2-0.9-3.2-0.9H78.9c-1.2,0-2.2,0.3-3.2,0.9
		c-1,0.6-1.7,1.4-2,2.5l-5.5,14.4c-0.2-0.2-0.6-0.5-1.1-0.7c-0.5-0.2-0.9-0.3-1.2-0.3h-3.7c-0.9,0-1.7,0.3-2.4,1
		c-0.7,0.7-1,1.5-1,2.4v1.8c0,0.9,0.3,1.7,1,2.4c0.7,0.7,1.5,1,2.4,1H66c-0.2,0.4-0.4,0.8-0.6,1.3c-0.1,0.5-0.2,1-0.2,1.6v16.5
		c0,0.9,0.2,1.8,0.6,2.5c0.4,0.8,1,1.4,1.8,1.9h70.3c0.7-0.4,1.2-1,1.7-1.8c0.4-0.8,0.6-1.7,0.6-2.6v-16.5c0-0.6-0.1-1.1-0.2-1.6
		c-0.1-0.5-0.3-0.9-0.6-1.3h2.6c0.9,0,1.7-0.3,2.4-1C145.1,106.3,145.5,105.5,145.5,104.6z M83.9,135.8v-2.4H67.6v4.2
		c0,1.2,0.4,2.2,1.2,3c0.8,0.8,1.8,1.2,3,1.2h7.8c1.2,0,2.2-0.4,3-1.2c0.8-0.8,1.2-1.8,1.2-3V135.8z M74.4,101.9
		c-0.6,0-1.1-0.2-1.4-0.6c-0.3-0.4-0.4-0.9-0.1-1.5l4.2-11c0.2-0.8,0.7-1.4,1.2-1.8c0.6-0.4,1.2-0.6,1.9-0.6H125
		c0.8,0,1.5,0.2,2,0.7c0.5,0.5,0.9,1,1.2,1.7l4.1,11c0.2,0.4,0.2,0.9-0.1,1.4c-0.3,0.5-0.8,0.7-1.5,0.7H74.4z M81.8,111.6
		c-1-1-2.3-1.6-3.7-1.6c-1.4,0-2.6,0.5-3.7,1.6c-1,1-1.6,2.3-1.6,3.7c0,1.5,0.5,2.7,1.6,3.7c1,1,2.3,1.5,3.7,1.5
		c1.5,0,2.7-0.5,3.7-1.5s1.5-2.3,1.5-3.7C83.3,113.9,82.8,112.6,81.8,111.6z M94.5,65.6l2-2l-4.6-4.7l-2,2L94.5,65.6z M98,76.5h4.2
		v-8.1c-1.2,0-2.2,0.4-3,1.2c-0.8,0.8-1.2,1.8-1.2,3V76.5z M100.7,62.3h2.9v-6.5h-2.9V62.3z M110,65.4l4.6-4.6l-2-2l-4.7,4.6
		L110,65.4z M137.6,137.6c0-2.8,0-4.3,0-4.4h-16.5v4.4c0,1.2,0.4,2.2,1.2,3c0.8,0.8,1.8,1.2,3,1.2h8.1c1.2,0,2.2-0.4,3-1.2
		C137.2,139.8,137.6,138.8,137.6,137.6z M131.1,111.6c-1-1-2.3-1.6-3.7-1.6c-1.4,0-2.6,0.5-3.7,1.6c-1,1-1.6,2.3-1.6,3.7
		c0,1.5,0.5,2.7,1.6,3.7c1,1,2.3,1.5,3.7,1.5c1.5,0,2.7-0.5,3.7-1.5c1-1,1.5-2.3,1.5-3.7C132.7,113.9,132.2,112.6,131.1,111.6z"/>
</g>
</svg>
