<svg width="31" height="21" viewBox="0 0 31 21" fill="none" xmlns="http://www.w3.org/2000/svg">
    <path d="M26.3376 8.53356C26.0643 3.88356 22.2311 0.166656 17.6106 0.166656C14.8051 0.166656 12.0884 1.54254 10.4051 3.78746C10.3664 3.76731 10.3256 3.75336 10.2863 3.73476C10.184 3.68516 10.0802 3.63814 9.97425 3.59577C9.91535 3.57252 9.85645 3.55134 9.79703 3.53067C9.69215 3.49399 9.58572 3.46144 9.47722 3.43199C9.4178 3.41597 9.3589 3.39944 9.29897 3.38601C9.18272 3.35966 9.06388 3.33951 8.94402 3.32142C8.89183 3.31367 8.84068 3.30334 8.78798 3.29766C8.61645 3.27854 8.44285 3.26666 8.26667 3.26666C5.70245 3.26666 3.61667 5.35244 3.61667 7.91666C3.61667 7.98227 3.6208 8.04686 3.62493 8.11144V8.11351C1.47612 9.28531 0 11.7395 0 14.1962C0 17.8558 2.97703 20.8333 6.63658 20.8333H19.299C19.3528 20.8333 19.406 20.8302 19.4597 20.8261L19.4918 20.822L19.561 20.8261C19.6137 20.8302 19.6664 20.8333 19.7206 20.8333H24.7855C28.2121 20.8333 31 18.0454 31 14.6189C31 11.7829 29.0227 9.23932 26.3376 8.53356ZM24.7855 19.8H19.7206C19.6902 19.8 19.6607 19.7974 19.6307 19.7953L19.4907 19.7897L19.3884 19.7953C19.359 19.7974 19.329 19.8 19.299 19.8H6.63658C3.54692 19.8 1.03333 17.2864 1.03333 14.1962C1.03333 12.05 2.43092 9.82212 4.35705 8.89884L4.65 8.75882V8.43332C4.65 8.36771 4.65413 8.30106 4.65775 8.23389L4.6624 8.15122L4.6562 8.04272C4.6531 8.00087 4.65 7.95902 4.65 7.91666C4.65 5.92284 6.27285 4.29999 8.26667 4.29999C8.42632 4.29999 8.5839 4.31394 8.74045 4.33461C8.78075 4.33977 8.82105 4.34649 8.86083 4.35321C8.99878 4.37594 9.13467 4.40591 9.26848 4.44466C9.28657 4.44982 9.30517 4.45344 9.32325 4.45861C9.4705 4.50356 9.61413 4.56039 9.75467 4.62446C9.79135 4.64099 9.827 4.65907 9.86317 4.67664C9.98717 4.73812 10.1086 4.80529 10.2259 4.88124C11.2215 5.52604 11.8833 6.64462 11.8833 7.91666C11.8833 8.20237 12.1143 8.43332 12.4 8.43332C12.6857 8.43332 12.9167 8.20237 12.9167 7.91666C12.9167 6.49376 12.2729 5.22017 11.2633 4.36664C12.7446 2.42914 15.1838 1.19999 17.6106 1.19999C21.6122 1.19999 24.9354 4.36974 25.282 8.37546C24.754 8.33826 23.9635 8.31914 23.1725 8.43952C22.8904 8.4824 22.6966 8.7459 22.7395 9.028C22.7783 9.28375 22.9984 9.46717 23.2495 9.46717C23.2753 9.46717 23.3017 9.46511 23.3275 9.46097C24.4781 9.28686 25.6773 9.45012 25.7476 9.45994C28.1532 9.91719 29.9667 12.1332 29.9667 14.6189C29.9667 17.4755 27.6422 19.8 24.7855 19.8Z" fill="#ED1E79"/>
</svg>
