<?xml version="1.0" encoding="utf-8"?>
<!-- Generator: Adobe Illustrator 19.1.0, SVG Export Plug-In . SVG Version: 6.00 Build 0)  -->
<svg version="1.1" id="Layer_1" xmlns="http://www.w3.org/2000/svg" xmlns:xlink="http://www.w3.org/1999/xlink" x="0px" y="0px"
	 viewBox="0 0 43.5 43.5" style="enable-background:new 0 0 43.5 43.5;" xml:space="preserve">
<path style="fill-rule:evenodd;clip-rule:evenodd;fill:#FFFFFF;" d="M21.8,0C9.7,0,0,9.7,0,21.8c0,12,9.7,21.8,21.8,21.8
	c12,0,21.8-9.7,21.8-21.8C43.5,9.7,33.8,0,21.8,0z M21.8,41.3C11,41.3,2.3,32.5,2.3,21.8C2.3,11,11,2.3,21.8,2.3
	c10.8,0,19.5,8.7,19.5,19.5C41.3,32.5,32.5,41.3,21.8,41.3z"/>
<path style="fill:#FFFFFF;" d="M20.5,23c1.6,1.6,3.4,3.1,4.1,2.4c1-1,1.7-2,4-0.1c2.3,1.8,0.5,3.1-0.5,4.1c-1.2,1.2-5.5,0.1-9.8-4.2
	c-4.3-4.3-5.4-8.6-4.2-9.8c1-1,2.2-2.8,4.1-0.5c1.8,2.3,0.9,2.9-0.1,4C17.4,19.6,19,21.4,20.5,23z"/>
</svg>
