<?xml version="1.0" encoding="utf-8"?>
<!-- Generator: Adobe Illustrator 20.1.0, SVG Export Plug-In . SVG Version: 6.00 Build 0)  -->
<svg version="1.1" id="Слой_1" xmlns="http://www.w3.org/2000/svg" xmlns:xlink="http://www.w3.org/1999/xlink" x="0px" y="0px"
	 width="24px" height="13px" viewBox="0 0 24 13" enable-background="new 0 0 24 13" xml:space="preserve">
<path fill="#ffffff" d="M20.5,8.1c0.8,0.7,1.6,1.4,2.3,2.2c0.3,0.3,0.6,0.7,0.8,1.1c0.3,0.6,0,1.2-0.5,1.2h-3.4
	c-0.9,0.1-1.6-0.3-2.2-0.8c-0.5-0.4-0.9-0.9-1.4-1.4c-0.2-0.2-0.4-0.4-0.6-0.5c-0.5-0.3-0.9-0.2-1.1,0.3c-0.3,0.5-0.3,1-0.4,1.5
	c0,0.8-0.3,0.9-1.1,1c-1.7,0.1-3.4-0.2-4.9-1C6.7,11,5.6,10,4.7,8.8C2.9,6.6,1.6,4.1,0.4,1.6C0.1,1,0.3,0.7,1,0.6c1.1,0,2.2,0,3.4,0
	c0.5,0,0.8,0.2,0.9,0.6c0.6,1.4,1.3,2.7,2.3,3.9C7.8,5.4,8.1,5.7,8.5,6c0.4,0.3,0.7,0.2,0.9-0.2C9.5,5.5,9.6,5.3,9.6,5
	c0.1-1,0.1-1.9-0.1-2.9C9.4,1.5,9,1.1,8.4,1C8,1,8,0.9,8.2,0.7c0.3-0.3,0.5-0.5,1.1-0.5h3.9c0.6,0.1,0.7,0.4,0.8,0.9v4
	c0,0.2,0.1,0.9,0.5,1c0.3,0.1,0.6-0.2,0.8-0.4c0.9-0.9,1.6-2,2.2-3.1c0.3-0.5,0.5-1,0.7-1.5c0.2-0.4,0.4-0.6,0.9-0.6h3.7
	c0.1,0,0.2,0,0.3,0c0.6,0.1,0.8,0.4,0.6,0.9c-0.3,0.9-0.9,1.6-1.5,2.4s-1.3,1.6-1.9,2.4C19.7,7.1,19.8,7.4,20.5,8.1L20.5,8.1z"/>
</svg>
