<?xml version="1.0" encoding="utf-8"?>
<!-- Generator: Adobe Illustrator 18.0.0, SVG Export Plug-In . SVG Version: 6.00 Build 0)  -->
<!DOCTYPE svg PUBLIC "-//W3C//DTD SVG 1.1//EN" "http://www.w3.org/Graphics/SVG/1.1/DTD/svg11.dtd">
<svg version="1.1" id="Layer_1" xmlns="http://www.w3.org/2000/svg" xmlns:xlink="http://www.w3.org/1999/xlink" x="0px" y="0px"
	 viewBox="0 0 76.5 69.3" enable-background="new 0 0 76.5 69.3" xml:space="preserve">
<g>
	<path fill="#E22779" d="M75.9,16.3c0-8.1-6.6-14.7-14.7-14.7c-6,0-11.4,3.7-13.6,9.2c-2.8-0.9-5.8-1.4-8.9-1.4
		c-3.2,0-6.4,0.5-9.3,1.5c-2.2-5.6-7.6-9.3-13.7-9.3C7.5,1.6,0.9,8.2,0.9,16.3c0,6.3,4,11.8,9.8,13.9c-0.8,2.6-1.2,5.4-1.2,8.3
		c0,16,13.1,29.1,29.1,29.1c16,0,29.1-13.1,29.1-29.1c0-2.9-0.4-5.7-1.2-8.4C72.1,27.9,75.9,22.4,75.9,16.3z M3.9,16.3
		c0-6.5,5.3-11.7,11.7-11.7c4.8,0,9.2,3,10.9,7.4c-1,0.5-2,1-3,1.6c-1.1-3.3-4.3-5.6-7.9-5.6c-4.6,0-8.4,3.8-8.4,8.4
		c0,3.8,2.5,7,5.9,8c-0.5,1-1,2-1.5,3C7.1,25.7,3.9,21.3,3.9,16.3z M14.3,22.5c-2.9-0.6-5-3.2-5-6.2c0-3.5,2.9-6.4,6.4-6.4
		c2.9,0,5.5,2,6.2,4.8C18.8,16.8,16.3,19.5,14.3,22.5z M38.6,64.5c-14.4,0-26.1-11.7-26.1-26.1s11.7-26.1,26.1-26.1
		S64.7,24,64.7,38.4S53,64.5,38.6,64.5z M55.1,14.5c0.8-2.7,3.2-4.5,6.1-4.5c3.5,0,6.4,2.9,6.4,6.4c0,2.9-1.9,5.4-4.7,6.1
		C60.8,19.3,58.2,16.6,55.1,14.5z M65.5,27.2c-0.4-1-0.9-2-1.5-3c3.3-1.1,5.6-4.3,5.6-7.9c0-4.6-3.8-8.4-8.4-8.4
		c-3.6,0-6.6,2.2-7.8,5.4c-1-0.6-2-1.1-3-1.5c1.8-4.3,6.1-7.3,10.8-7.3c6.5,0,11.7,5.3,11.7,11.7C72.9,21.2,69.9,25.5,65.5,27.2z"/>
	<path fill="#E22779" d="M31.7,37.2c0-2.8-2.3-5.1-5.1-5.1s-5.1,2.3-5.1,5.1s2.3,5.1,5.1,5.1S31.7,40,31.7,37.2z M26.5,40.3
		c-1.7,0-3.1-1.4-3.1-3.1s1.4-3.1,3.1-3.1s3.1,1.4,3.1,3.1S28.3,40.3,26.5,40.3z"/>
	<path fill="#E22779" d="M38.6,42.8c-6,0-10.7,3-10.7,6.8c0,3.6,4.2,6.5,9.7,6.8v3.2c0,0.6,0.4,1,1,1s1-0.4,1-1v-3.2
		c5.5-0.3,9.7-3.2,9.7-6.8C49.4,45.8,44.6,42.8,38.6,42.8z M38.6,54.4c-4.7,0-8.7-2.2-8.7-4.8c0-2.6,4-4.8,8.7-4.8
		c4.7,0,8.7,2.2,8.7,4.8C47.4,52.2,43.4,54.4,38.6,54.4z"/>
	<path fill="#E22779" d="M50.3,32c-2.8,0-5.1,2.3-5.1,5.1s2.3,5.1,5.1,5.1s5.1-2.3,5.1-5.1S53.2,32,50.3,32z M50.3,40.3
		c-1.7,0-3.1-1.4-3.1-3.1s1.4-3.1,3.1-3.1s3.1,1.4,3.1,3.1S52,40.3,50.3,40.3z"/>
</g>
</svg>
