<?xml version="1.0" encoding="utf-8"?>
<!-- Generator: Adobe Illustrator 19.0.0, SVG Export Plug-In . SVG Version: 6.00 Build 0)  -->
<svg version="1.1" id="bqLayer_1" xmlns="http://www.w3.org/2000/svg" xmlns:xlink="http://www.w3.org/1999/xlink" x="0px" y="0px"
	 viewBox="-382.5 420 60 161" style="enable-background:new -382.5 420 60 161;" xml:space="preserve">
<style type="text/css">
	.st0{fill:#ED1E79;}
</style>
<path class="st0" d="M-346.5,421.4c1.9,0,3.3,1.4,3.5,3.2l-0.1,2.9c0.4,0.1,0.8,0.4,1.3,0.7c0.7,0.7,1,1.7,1.1,2.7l0.1,4.9
	c0.1,1.1-0.3,2.1-1.1,2.8c-0.3,0.3-0.7,0.7-1.2,0.8v5.6c0,11.1,3.1,22.6,8.9,33.7c5,9.3,7.7,23.4,7.8,30.1l0.5,64.6
	c0,1.8-0.5,3.3-1.8,4.6l-0.1,0.1c-1.2,1.1-2.8,1.8-4.6,1.8l-39.1,0.1c-1.8,0-3.3-0.5-4.6-1.8c-1.4-1.3-2-2.9-2-4.7l-0.2-64.6
	c-0.3-7.7,2.8-21.9,7.3-30.5c5.5-11.2,8.6-22.4,8.4-33.8v-5.1c-1.8-0.3-3.1-2-3-3.8l-0.1-4.9c-0.1-1.1,0.3-2.1,1.1-2.8
	c0.3-0.3,0.7-0.7,0.8-0.6l0.1-2.9c0-0.8,0.3-1.8,0.9-2.4c0.8-0.6,1.7-1,2.5-1L-346.5,421.4L-346.5,421.4z M-367.6,480.6
	c-4.6,8.8-7.2,22.4-7,28.4l0.6,64.5c0,0.8,0.3,1.4,0.7,1.9c0.4,0.4,1.1,0.7,1.8,0.6l39.4-0.1c0.6,0,1.1-0.3,1.7-0.7
	c0.4-0.4,0.7-1.1,0.6-1.8l-0.5-64.2c0-6-2.5-19.6-7.1-28.4c-2.5-4.7-4.6-9.8-6-14.6h-18C-363,471-365.1,475.8-367.6,480.6
	L-367.6,480.6z M-358.4,444.8c0,5.7-0.8,11.4-2.2,17.1l15.7,0.2c-1.4-5.6-2-11-2.1-16.7l0.1-5.3l-11.5-0.1V444.8L-358.4,444.8z
	 M-361.6,431.4l-0.1,4.3l16.9,0.1l0.1-4.3L-361.6,431.4z M-359.3,427.2h12.3v-1.8h-12.3V427.2z M-340.1,540.5
	c-1,1.5-1.9,2.8-2.9,3.8c-2.6,2.5-5.9,3.9-9.3,4c-4.8,0-9.2-2.7-12.5-7.7c-2.9-4.6-4.9-10.6-4.9-17.3c-0.2-6.4,1.5-12.7,4.5-17.3
	c3.2-5,7.6-7.9,12.2-7.8c4.8,0,9.2,2.7,12.5,7.7c2.9,4.6,4.7,10.9,4.9,17.3C-335.4,529.6-337.1,535.9-340.1,540.5L-340.1,540.5z
	 M-343.7,508.5c-2.5-3.8-5.7-5.7-9-5.7c-2.4,0-4.6,1-6.5,2.8c-0.9,0.8-1.7,1.9-2.4,2.9c-2.5,3.9-4,9.3-4,15c0,5.7,1.4,11,4.2,15.1
	c2.5,3.6,5.7,5.6,9.2,5.9c3.2,0,6.4-2.1,8.7-5.8c2.5-3.9,4-9.3,4-15C-339.6,517.8-341,512.5-343.7,508.5L-343.7,508.5z"/>
</svg>
