<?xml version="1.0" encoding="utf-8"?>
<!-- Generator: Adobe Illustrator 18.0.0, SVG Export Plug-In . SVG Version: 6.00 Build 0)  -->
<!DOCTYPE svg PUBLIC "-//W3C//DTD SVG 1.1//EN" "http://www.w3.org/Graphics/SVG/1.1/DTD/svg11.dtd">
<svg version="1.1" id="Layer_1" xmlns="http://www.w3.org/2000/svg" xmlns:xlink="http://www.w3.org/1999/xlink" x="0px" y="0px"
	 viewBox="0 0 64 64.8" enable-background="new 0 0 64 64.8" xml:space="preserve">
<g>
	<path fill="#E22779" d="M63.2,29.1c0-6.5-4.8-12-11.1-13c-2.9-9.1-11.4-15.3-21-15.3c-9.8,0-18.3,6.4-21.1,15.7
		c-5.5,1.7-9.2,6.7-9.2,12.5c0,4.1,1.9,7.9,5.2,10.4L9.9,62c0.1,0.7,0.7,1.2,1.5,1.2H51c0.7,0,1.4-0.5,1.5-1.2l3.7-21.2
		C60.5,38.5,63.2,34,63.2,29.1z M49.7,60.3h-4l1.8-14.4c0.1-0.5-0.3-1-0.9-1.1c-0.6-0.1-1,0.3-1.1,0.9l-1.8,14.6H39l0.9-14.4
		c0-0.6-0.4-1-0.9-1.1c-0.6,0-1,0.4-1.1,0.9L37,60.3h-4.8V45.8c0-0.6-0.4-1-1-1s-1,0.4-1,1v14.5h-4.8l-0.9-14.6c0-0.6-0.5-1-1.1-0.9
		c-0.6,0-1,0.5-0.9,1.1l0.9,14.4h-4.7l-1.8-14.6c-0.1-0.5-0.6-0.9-1.1-0.9c-0.5,0.1-0.9,0.6-0.9,1.1l1.8,14.4h-4l-3.5-20h44.1
		L49.7,60.3z M55.8,37.5c-0.2-0.1-0.5-0.2-0.8-0.2H7.9c-2.6-1.9-4.1-4.9-4.1-8.1c0-4.7,3.2-8.8,7.8-9.8c0.5-0.1,1-0.5,1.1-1.1
		c2.2-8.4,9.7-14.3,18.5-14.3c8.6,0,16.1,5.8,18.4,14.1c0.2,0.6,0.7,1.1,1.3,1.1c5.3,0.4,9.4,4.8,9.4,10.1
		C60.2,32.5,58.5,35.6,55.8,37.5z"/>
	<path fill="#E22779" d="M29.9,19.6c-5.5,0-10,4.5-10,10c0,0.6,0.4,1,1,1s1-0.4,1-1c0-4.4,3.6-8,8-8s8,3.6,8,8c0,0.6,0.4,1,1,1
		s1-0.4,1-1C39.9,24.1,35.4,19.6,29.9,19.6z"/>
</g>
</svg>
