<?xml version="1.0" encoding="utf-8"?>
<!-- Generator: Adobe Illustrator 19.0.0, SVG Export Plug-In . SVG Version: 6.00 Build 0)  -->
<svg version="1.1" id="Layer_1" xmlns="http://www.w3.org/2000/svg" xmlns:xlink="http://www.w3.org/1999/xlink" x="0px" y="0px"
	 viewBox="-419 251 160 500" style="enable-background:new -419 251 160 500;" xml:space="preserve">
<style type="text/css">
	.st0{fill:#EA1E78;}
</style>
<path class="st0" d="M-262.6,278c-6.2-24.7-64.1-26-76.2-26c-12.3,0-71.1,1.4-76.4,26.7h-0.5V357c0,0.5-0.3,0.9-0.3,1.4
	s0.3,0.9,0.3,1.4v363.3h0.2c2.2,27.5,64.1,28.9,76.7,28.9c12.7,0,75.7-1.5,76.8-29.6h0.1V278H-262.6z M-285,656.8
	c-4.7,3.6-23.8,9.6-53.8,9.6c-30.1,0-49.2-6-53.8-9.6v-275c15,5.4,35.1,7.7,53.7,7.7c6.4,0,11.5-5.2,11.5-11.5
	c0-6.4-5.2-11.5-11.5-11.5c-25.4,0-43.1-4.5-50.8-8.1c7.7-3.6,25.3-8.1,50.8-8.1c29,0,47.8,5.8,53.4,9.6c-1.9,2.2-8,3.5-13.3,4
	c-6.3,0.6-11,6.2-10.4,12.5s6.3,10.8,12.5,10.4c4.6-0.4,8.4-1.2,11.9-2.2v272.2H-285z M-339,327.2c-18.6,0-38.6,2.3-53.7,7.7v-29.5
	c19.7,6.8,46.1,7.4,53.8,7.4c7.7,0,34.1-0.6,53.8-7.4v29.7C-300.1,329.6-320.4,327.2-339,327.2z M-338.9,275
	c24.2,0,41.4,3.9,49.6,7.3c-8.2,3.4-25.4,7.3-49.6,7.3c-24.2,0-41.4-3.9-49.6-7.3C-380.2,279-363,275-338.9,275z M-392.8,719.3
	v-37.2c19.7,6.8,46.1,7.4,53.8,7.4c7.7,0,34.1-0.6,53.8-7.4v37.2c-4.7,3.6-23.8,9.6-53.8,9.6C-369,729-388,722.9-392.8,719.3z"/>
</svg>
