<?xml version="1.0" encoding="utf-8"?>
<!-- Generator: Adobe Illustrator 19.0.0, SVG Export Plug-In . SVG Version: 6.00 Build 0)  -->
<svg version="1.1" id="Layer_1" xmlns="http://www.w3.org/2000/svg" xmlns:xlink="http://www.w3.org/1999/xlink" x="0px" y="0px"
	 viewBox="0 0 40 50" style="enable-background:new 0 0 40 50;" xml:space="preserve">
<style type="text/css">
	.st0{fill:#ED2379;}
</style>
<g id="XMLID_36_">
	<g id="XMLID_37_">
		<path id="XMLID_38_" class="st0" d="M21.3,26.2H18v-0.9c0-0.2-0.2-0.4-0.4-0.4H8.7c-0.2,0-0.4,0.2-0.4,0.4s0.2,0.4,0.4,0.4h8.4
			v3.1c0,2.8-1.5,5.3-3.9,6.7H5.4c-2.4-1.4-3.9-4-3.9-6.7v-3.1h2.7c0.2,0,0.4-0.2,0.4-0.4s-0.2-0.4-0.4-0.4H1.2
			c-0.2,0-0.4,0.2-0.4,0.4v3.5c0,1.5,0.4,3.1,1.2,4.4c0.5,0.9,1.2,1.7,2,2.3H1.2c-0.2,0-0.4,0.2-0.4,0.4c0,1.5,1.2,2.7,2.7,2.7h12.8
			c1.5,0,2.7-1.2,2.7-2.7c0-0.2-0.2-0.4-0.4-0.4h-3.8c0.7-0.6,1.4-1.3,1.9-2.1h1.2c2.2,0,3.9-1.8,3.9-3.9v-2.9
			C21.7,26.3,21.5,26.2,21.3,26.2z M18.1,36.4c-0.2,0.8-0.9,1.5-1.8,1.5H3.5c-0.9,0-1.7-0.6-1.8-1.5h3.7h8.1H18.1z M18,28.8v-0.2
			h1.3v0.9c0,0.8-0.7,1.5-1.5,1.5h-0.1C17.9,30.3,18,29.6,18,28.8z M20.9,29.5c0,1.7-1.4,3.1-3.1,3.1h-0.7c0.1-0.3,0.2-0.5,0.3-0.8
			h0.3c1.3,0,2.3-1,2.3-2.3v-1.3c0-0.2-0.2-0.4-0.4-0.4H18V27h2.9V29.5z"/>
	</g>
</g>
<g id="XMLID_33_">
	<g id="XMLID_34_">
		<path id="XMLID_35_" class="st0" d="M9.7,20l-0.2-0.3c-0.3-0.4-0.3-0.9,0-1.3c0.1-0.2,0.1-0.4-0.1-0.6c-0.2-0.1-0.4-0.1-0.6,0.1
			c-0.6,0.7-0.6,1.7,0,2.4l0.2,0.3c0.4,0.5,0.4,1.2,0,1.7l-0.2,0.3c-0.1,0.2-0.1,0.4,0.1,0.6c0.1,0.1,0.2,0.1,0.3,0.1
			c0.1,0,0.2-0.1,0.3-0.2l0.2-0.3C10.4,21.9,10.4,20.8,9.7,20z"/>
	</g>
</g>
<g id="XMLID_30_">
	<g id="XMLID_31_">
		<path id="XMLID_32_" class="st0" d="M12,20.9l-0.2-0.3c-0.3-0.4-0.3-0.9,0-1.3c0.1-0.2,0.1-0.4-0.1-0.6c-0.2-0.1-0.4-0.1-0.6,0.1
			c-0.6,0.7-0.6,1.7,0,2.4l0.2,0.3c0.4,0.5,0.4,1.2,0,1.7l-0.2,0.3C11,23.6,11,23.8,11.2,24c0.1,0.1,0.2,0.1,0.3,0.1
			c0.1,0,0.2-0.1,0.3-0.2l0.2-0.3C12.7,22.8,12.7,21.7,12,20.9z"/>
	</g>
</g>
<g id="XMLID_27_">
	<g id="XMLID_28_">
		<path id="XMLID_29_" class="st0" d="M7.5,20.9l-0.2-0.3c-0.3-0.4-0.3-0.9,0-1.3c0.1-0.2,0.1-0.4-0.1-0.6c-0.2-0.1-0.4-0.1-0.6,0.1
			c-0.6,0.7-0.6,1.7,0,2.4l0.2,0.3c0.4,0.5,0.4,1.2,0,1.7l-0.2,0.3c-0.1,0.2-0.1,0.4,0.1,0.6c0.1,0.1,0.2,0.1,0.3,0.1
			c0.1,0,0.2-0.1,0.3-0.2l0.2-0.3C8.1,22.8,8.1,21.7,7.5,20.9z"/>
	</g>
</g>
<g id="XMLID_24_">
	<g id="XMLID_25_">
		<path id="XMLID_26_" class="st0" d="M6.9,25c-0.1-0.1-0.2-0.1-0.3-0.1c-0.1,0-0.2,0-0.3,0.1c-0.1,0.1-0.1,0.2-0.1,0.3
			s0,0.2,0.1,0.3c0.1,0.1,0.2,0.1,0.3,0.1c0.1,0,0.2,0,0.3-0.1C7,25.5,7,25.4,7,25.3C7,25.2,7,25.1,6.9,25z"/>
	</g>
</g>
<g id="XMLID_21_">
	<g id="XMLID_22_">
		<path id="XMLID_23_" class="st0" d="M15.6,28.4c-0.2,0-0.4,0.2-0.4,0.4c0,1.5-0.6,3-1.7,4.1c-0.2,0.2-0.2,0.4,0,0.6
			c0.1,0.1,0.2,0.1,0.3,0.1c0.1,0,0.2,0,0.3-0.1c1.2-1.2,1.9-2.9,1.9-4.7C16,28.6,15.8,28.4,15.6,28.4z"/>
	</g>
</g>
<g id="XMLID_18_">
	<g id="XMLID_19_">
		<path id="XMLID_20_" class="st0" d="M12.8,34c-0.1-0.2-0.4-0.3-0.6-0.2l0,0C12,34,12,34.3,12.1,34.5c0.1,0.1,0.2,0.2,0.4,0.2
			c0.1,0,0.1,0,0.2-0.1l0,0C12.8,34.5,12.9,34.2,12.8,34z"/>
	</g>
</g>
<g id="XMLID_2_">
	<g id="XMLID_3_">
		<path id="XMLID_4_" class="st0" d="M36.6,15.6c-1.7,0-3.2,1.3-3.4,3h-1.1l1.4-4.7h1.4V13h-1.7c-0.2,0-0.4,0.1-0.4,0.3l-1.5,5.3
			H20.3c-0.2,0-0.4,0.2-0.4,0.4c0,0.1,0,0.2,0.1,0.3l8,10.2v8.4h-3.4v0.9h7.7v-0.9h-3.4v-8.4l5.9-7.5c0.5,0.3,1.1,0.5,1.8,0.5
			c1.9,0,3.4-1.5,3.4-3.4S38.5,15.6,36.6,15.6z M21.2,19.4H31l-0.9,3h-6.5L21.2,19.4z M28.4,28.6l-4.2-5.3h5.6l-1,3.3l0.8,0.2l1-3.5
			h1.9L28.4,28.6z M33.3,22.4H31l0.9-3h3.8L33.3,22.4z M36.6,21.5c-0.4,0-0.9-0.1-1.2-0.3l1.6-2c0.1-0.2,0.1-0.5-0.1-0.6
			c-0.1-0.1-0.2-0.1-0.3-0.1H34c0.2-1.4,1.6-2.3,3-2.1c1.4,0.2,2.3,1.6,2.1,3C38.9,20.6,37.8,21.5,36.6,21.5z"/>
	</g>
</g>
</svg>
