<?xml version="1.0" encoding="utf-8"?>
<!-- Generator: Adobe Illustrator 16.2.0, SVG Export Plug-In . SVG Version: 6.00 Build 0)  -->
<!DOCTYPE svg PUBLIC "-//W3C//DTD SVG 1.1//EN" "http://www.w3.org/Graphics/SVG/1.1/DTD/svg11.dtd">
<svg version="1.1" id="Layer_1" xmlns="http://www.w3.org/2000/svg" xmlns:xlink="http://www.w3.org/1999/xlink" x="0px" y="0px"
	 width="30px" height="40px" viewBox="0 0 30 40" enable-background="new 0 0 30 40" xml:space="preserve">
<g>
	<path fill-rule="evenodd" clip-rule="evenodd" fill="#ED2079" d="M26.185,25.758c2.315-2.628,3.731-6.068,3.731-9.847
		c0-8.238-6.678-14.917-14.916-14.917S0.083,7.672,0.083,15.911c0,3.781,1.418,7.223,3.736,9.852L15,39.006L26.185,25.758z"/>
	<path fill="#FFFFFF" d="M28.125,13.383c0,0-3.127-0.833-5.713,0.189c-2.202,0.869-3.873,3.75-4.046,3.977
		c-0.019,0.024-0.041,0.052-0.06,0.077c-0.004,0-0.006-0.002-0.01-0.003c-0.398-0.057-3.366-0.157-3.366-0.157
		c-1.481,0-2.946,0.101-3.346,0.157c-0.005,0-0.006,0.002-0.01,0.003c-0.019-0.024-0.041-0.053-0.06-0.077
		c-0.172-0.227-1.844-3.108-4.046-3.977c-2.586-1.021-5.713-0.189-5.713-0.189s2.255-0.023,3.288,1.96
		c0.777,1.493-0.063,2.612-0.063,2.612s1.084-0.4,2.487,0.692c0.933,0.726,1.43,2.84,1.43,2.84s1.611-0.38,2.425-0.03
		c1.904,0.816,2.99,2.018,3.406,2.553c-0.016,1.184-0.086,2.384-0.182,2.534c-0.365,0.577-0.963,0.601-1.328,0.692
		c-0.364,0.091-0.67,0.128-0.503,0.308c0.248,0.268,2.162,0.244,2.224,0.242c0.061,0.002,1.975,0.025,2.223-0.242
		c0.166-0.18-0.139-0.217-0.503-0.308c-0.365-0.092-0.963-0.115-1.328-0.692c-0.096-0.15-0.166-1.351-0.181-2.534
		c0.415-0.535,1.502-1.736,3.405-2.553c0.813-0.35,2.425,0.03,2.425,0.03s0.498-2.114,1.43-2.84
		c1.404-1.092,2.488-0.692,2.488-0.692s-0.84-1.119-0.063-2.612C25.869,13.36,28.125,13.383,28.125,13.383z M13.54,21.3
		c-0.395-0.412-1.378-1.566-1.378-1.566s0.902,0.626,1.533,1.421c0.657,0.828,1.036,2.08,1.036,2.092
		C14.731,23.261,13.888,21.662,13.54,21.3z M16.504,21.093c-0.348,0.361-1.193,1.961-1.193,1.947c0-0.013,0.38-1.264,1.037-2.093
		c0.631-0.795,1.533-1.421,1.533-1.421S16.898,20.68,16.504,21.093z"/>
</g>
</svg>
