<?xml version="1.0" encoding="utf-8"?>
<!-- Generator: Adobe Illustrator 16.2.0, SVG Export Plug-In . SVG Version: 6.00 Build 0)  -->
<!DOCTYPE svg PUBLIC "-//W3C//DTD SVG 1.1//EN" "http://www.w3.org/Graphics/SVG/1.1/DTD/svg11.dtd">
<svg version="1.1" id="Layer_1" xmlns="http://www.w3.org/2000/svg" xmlns:xlink="http://www.w3.org/1999/xlink" x="0px" y="0px"
	 width="560px" height="60px" viewBox="0 0 560 60" enable-background="new 0 0 560 60" xml:space="preserve">
<path fill="#ED2079" d="M53.255,6.535h-26.51c-0.413,0-0.747,0.334-0.747,0.747v45.437c0,0.412,0.334,0.746,0.747,0.746h26.511
	c0.412,0,0.747-0.334,0.747-0.746V7.282C54.002,6.869,53.667,6.535,53.255,6.535z M36.951,7.404h6.224
	c0.274,0,0.497,0.223,0.497,0.498c0,0.275-0.223,0.498-0.497,0.498h-6.224c-0.275,0-0.498-0.223-0.498-0.498
	C36.453,7.626,36.675,7.404,36.951,7.404z M40.062,51.104c-0.827,0-1.499-0.672-1.499-1.5c0-0.826,0.672-1.498,1.499-1.498
	c0.828,0,1.499,0.672,1.499,1.498C41.561,50.432,40.89,51.104,40.062,51.104z M52.011,47.49H27.989V10.393h24.022V47.49z"/>
<g>
	<path fill="#ED2079" d="M146.404,19.559h-13.398v13.304c0,1.988-1.611,3.601-3.6,3.601h-20.41v5.322c0,1.987,1.612,3.601,3.6,3.601
		h26.583l6.787,6.137v-6.137h0.438c1.988,0,3.6-1.611,3.6-3.601V23.159C150.004,21.171,148.393,19.559,146.404,19.559z"/>
	<path fill="#ED2079" d="M127.373,8.479H93.596c-1.988,0-3.6,1.612-3.6,3.601v18.75c0,1.988,1.612,3.6,3.6,3.6h1.533v6.262
		l6.644-6.262h25.6c1.988,0,3.6-1.611,3.6-3.6V12.079C130.973,10.091,129.361,8.479,127.373,8.479z"/>
</g>
<g>
	<path fill="#ED2079" d="M223.225,37.801c-2.83,0-5.127,2.295-5.127,5.127s2.297,5.127,5.127,5.127c2.832,0,5.127-2.295,5.127-5.127
		S226.057,37.801,223.225,37.801z"/>
	<path fill="#ED2079" d="M181.765,37.801c-2.831,0-5.126,2.295-5.126,5.127s2.295,5.127,5.126,5.127
		c2.832,0,5.127-2.295,5.127-5.127S184.596,37.801,181.765,37.801z"/>
	<path fill="#ED2079" d="M235.855,40.883l-0.224-9.072l-10.403-1.943l-1.558-9.007l-13.608-2.006v22.029h-1.99V11.946h-41.966
		v28.937h-2.009v1.982h11.207c0.034-3.541,2.912-6.402,6.461-6.402c3.549,0,6.427,2.861,6.461,6.402h28.538
		c0.034-3.541,2.911-6.402,6.461-6.402c3.549,0,6.428,2.861,6.461,6.402h6.217v-1.982H235.855z M212.078,29.88v-8.857l10.285,1.571
		l1.572,7.429L212.078,29.88z"/>
</g>
<g>
	<path fill="#ED2079" d="M306.457,31.914c-0.689-0.197-1.428-0.044-2.135,0.375c-0.387-9.654-3.075-14.468-4.725-16.534
		c0.264-1.713-0.617-3.859-3.012-6.278C289.152,1.963,272.91-1.495,262.55,8.41c-2.987,2.856-3.829,5.641-3.42,8.113
		c-0.433,0.549-0.864,1.202-1.293,2.002c-1.42,2.653-2.819,8.562-2.921,13.425c-0.464-0.142-0.93-0.163-1.375-0.036
		c-1.947,0.557-2.771,3.648-1.841,6.906c0.93,3.258,3.264,5.447,5.211,4.893c0.391-0.111,0.723-0.347,1.019-0.645
		c3.637,8.597,12.148,14.627,22.069,14.627c9.915,0,18.423-6.024,22.063-14.612c0.295,0.297,0.635,0.519,1.023,0.63
		c1.947,0.557,4.28-1.635,5.211-4.893C309.229,35.563,308.404,32.471,306.457,31.914z M256.6,42.617
		c-1.586,0.453-3.486-1.331-4.244-3.983c-0.758-2.653-0.086-5.171,1.5-5.624c0.345-0.099,0.703-0.072,1.063,0.025
		c0.032,1.438,0.188,2.755,0.524,3.809c0.621,1.954,1.31,3.516,1.912,4.706c0.053,0.152,0.102,0.31,0.156,0.462
		C257.255,42.298,256.954,42.516,256.6,42.617z M280,56.835c-9.504,0-17.663-5.743-21.207-13.946
		c-0.02-0.314-0.039-0.676-0.057-1.084c0.504-1.313,0.551-3.125,0.016-4.998c-0.011-0.039-0.025-0.076-0.037-0.115
		c0.211-5.524,1.318-12.256,5.354-13.355c2.865,1.945,6.216,2.841,7.961,2.092c4.523-1.938,2.369-9.047,13.572-6.247
		c3.443,0.861,6.517,0.989,8.903,0.537c5.91,2.052,7.04,10.255,7.037,16.224c-0.108,0.279-0.209,0.565-0.294,0.865
		c-0.518,1.807-0.491,3.56-0.036,4.858c-0.06,0.494-0.101,0.778-0.101,0.778s0.121-0.08,0.315-0.258
		c0.013,0.022,0.027,0.041,0.039,0.064C298.078,50.792,289.747,56.835,280,56.835z M307.645,38.634
		c-0.758,2.652-2.658,4.437-4.242,3.983c-0.355-0.102-0.656-0.32-0.912-0.611c0.31-0.84,0.566-1.703,0.781-2.585
		c0.599-1.405,1.084-3.375,1.072-6.067c0.596-0.369,1.219-0.51,1.801-0.344C307.73,33.463,308.4,35.98,307.645,38.634z"/>
	<path fill="#ED2079" d="M287.885,42.491c0.002,0.047,0.004,0.095,0.004,0.143c0,4.517-3.531,8.177-7.889,8.177
		s-7.889-3.66-7.889-8.177c0-0.048,0.002-0.096,0.002-0.143c0,0,4.522,1.723,8.316,1.723
		C284.512,44.214,287.885,42.491,287.885,42.491z"/>
	<path fill="#ED2079" d="M294.083,35.17c-0.84-0.372-1.755-0.6-2.714-0.673c0.281-0.42,0.447-0.927,0.447-1.47
		c0-1.459-1.183-2.639-2.64-2.639c-1.458,0-2.64,1.18-2.64,2.639c0,0.846,0.404,1.591,1.023,2.072
		c-0.968,0.404-1.842,0.986-2.582,1.707c1.157-0.506,2.414-0.904,3.742-1.188c0.148,0.025,0.299,0.047,0.455,0.047
		c0.457,0,0.881-0.127,1.256-0.332c0.906-0.115,1.838-0.182,2.791-0.182C293.512,35.152,293.799,35.159,294.083,35.17z"/>
	<path fill="#ED2079" d="M271.844,35.332c1.331,0.281,2.59,0.684,3.749,1.188c-0.741-0.721-1.616-1.304-2.584-1.707
		c0.619-0.483,1.024-1.229,1.024-2.074c0-1.459-1.182-2.639-2.639-2.639c-1.459,0-2.641,1.18-2.641,2.639
		c0,0.546,0.165,1.052,0.449,1.473c-0.959,0.073-1.874,0.301-2.715,0.673c0.285-0.012,0.572-0.018,0.859-0.018
		c0.954,0,1.887,0.065,2.793,0.183c0.375,0.203,0.797,0.329,1.252,0.329C271.549,35.378,271.697,35.357,271.844,35.332z"/>
</g>
<path fill="#C9C9C9" d="M378.604,31.092c0.033-0.052,0.06-0.107,0.088-0.16c0.011-0.021,0.022-0.041,0.033-0.063
	c0.008-0.018,0.021-0.029,0.029-0.047c0.003-0.008,0.004-0.016,0.008-0.021c0.008-0.019,0.014-0.037,0.021-0.056
	c0.021-0.054,0.035-0.108,0.051-0.166c0.018-0.056,0.039-0.109,0.051-0.164c0.004-0.014,0.004-0.028,0.008-0.042
	c0.01-0.055,0.012-0.11,0.019-0.165c0.007-0.065,0.019-0.131,0.019-0.195c0-0.006,0.002-0.01,0.002-0.015
	c0-0.007-0.002-0.013-0.002-0.019c-0.002-0.053-0.011-0.104-0.016-0.156c-0.006-0.068-0.01-0.137-0.021-0.203
	c-0.002-0.016-0.004-0.03-0.009-0.046c-0.009-0.042-0.026-0.083-0.039-0.125c0-0.001,0-0.002,0-0.003
	c-0.02-0.066-0.036-0.133-0.062-0.197c-0.01-0.021-0.018-0.042-0.026-0.063c-0.002-0.005-0.002-0.01-0.004-0.014
	c-0.015-0.031-0.035-0.057-0.05-0.087c-0.003-0.005-0.006-0.011-0.01-0.017c-0.028-0.056-0.055-0.112-0.09-0.165
	c-0.014-0.021-0.026-0.041-0.041-0.062c-0.027-0.04-0.061-0.074-0.092-0.112c-0.035-0.044-0.07-0.091-0.109-0.132
	c-0.017-0.017-0.032-0.033-0.049-0.049c-0.041-0.039-0.084-0.071-0.127-0.105c-0.041-0.033-0.078-0.069-0.121-0.1
	c-0.02-0.012-0.037-0.023-0.056-0.036c-0.052-0.033-0.106-0.06-0.161-0.089c-0.037-0.021-0.07-0.045-0.109-0.063l-8.064-3.613
	c-1.015-0.451-2.209,0-2.665,1.016c-0.391,0.87-0.108,1.866,0.616,2.422h-24.537c-1.113,0-2.018,0.902-2.018,2.017
	c0,1.114,0.902,2.017,2.018,2.017h24.54c-0.728,0.555-1.01,1.553-0.618,2.424c0.335,0.748,1.069,1.191,1.842,1.191
	c0.274,0,0.556-0.059,0.822-0.178l8.021-3.596c0.004-0.002,0.008-0.004,0.012-0.006l0.033-0.015
	c0.033-0.017,0.063-0.037,0.095-0.056c0.037-0.02,0.075-0.037,0.11-0.059c0.021-0.014,0.045-0.023,0.065-0.037
	c0.021-0.013,0.039-0.024,0.058-0.039c0.049-0.033,0.091-0.072,0.135-0.109c0.055-0.047,0.111-0.09,0.16-0.143
	c0.018-0.018,0.033-0.035,0.051-0.053c0.021-0.023,0.037-0.051,0.057-0.076c0.004-0.004,0.008-0.01,0.012-0.016
	C378.523,31.199,378.566,31.148,378.604,31.092z"/>
<path fill="#C9C9C9" d="M518.906,48.603c0.052,0.033,0.107,0.06,0.16,0.088c0.021,0.011,0.041,0.022,0.063,0.033
	c0.018,0.008,0.029,0.021,0.047,0.029c0.008,0.003,0.016,0.004,0.021,0.008c0.019,0.008,0.037,0.014,0.056,0.021
	c0.054,0.021,0.108,0.035,0.166,0.051c0.056,0.018,0.108,0.039,0.164,0.051c0.015,0.004,0.028,0.004,0.042,0.008
	c0.055,0.01,0.109,0.012,0.165,0.019c0.065,0.007,0.131,0.019,0.194,0.019c0.007,0,0.011,0.002,0.016,0.002
	c0.007,0,0.014-0.002,0.02-0.002c0.053-0.002,0.104-0.011,0.156-0.016c0.067-0.006,0.137-0.01,0.202-0.021
	c0.017-0.002,0.03-0.004,0.046-0.009c0.042-0.009,0.083-0.026,0.125-0.039c0.002,0,0.002,0,0.004,0
	c0.065-0.02,0.133-0.036,0.196-0.062c0.021-0.01,0.042-0.018,0.063-0.026c0.004-0.002,0.01-0.002,0.014-0.004
	c0.031-0.015,0.057-0.035,0.087-0.05c0.005-0.003,0.011-0.006,0.017-0.01c0.057-0.028,0.112-0.055,0.166-0.09
	c0.021-0.014,0.041-0.026,0.062-0.041c0.04-0.027,0.073-0.061,0.112-0.092c0.043-0.035,0.09-0.07,0.131-0.109
	c0.018-0.017,0.033-0.032,0.05-0.049c0.039-0.041,0.071-0.084,0.104-0.127c0.033-0.041,0.069-0.078,0.1-0.121
	c0.013-0.02,0.023-0.037,0.037-0.056c0.033-0.052,0.06-0.106,0.088-0.161c0.021-0.037,0.046-0.07,0.064-0.109l3.612-8.064
	c0.451-1.015,0-2.209-1.017-2.665c-0.869-0.391-1.865-0.108-2.422,0.616V13.087c0-1.113-0.901-2.018-2.017-2.018
	c-1.114,0-2.017,0.902-2.017,2.018v24.54c-0.555-0.728-1.553-1.01-2.424-0.618c-0.748,0.335-1.191,1.069-1.191,1.842
	c0,0.274,0.059,0.556,0.178,0.822l3.596,8.021c0.002,0.004,0.004,0.008,0.006,0.012l0.015,0.033
	c0.017,0.033,0.037,0.063,0.056,0.095c0.02,0.037,0.037,0.075,0.059,0.11c0.014,0.021,0.023,0.045,0.037,0.065
	c0.013,0.021,0.024,0.039,0.039,0.058c0.033,0.049,0.072,0.091,0.109,0.135c0.047,0.055,0.09,0.111,0.143,0.16
	c0.018,0.018,0.035,0.033,0.053,0.051c0.023,0.021,0.051,0.037,0.076,0.057c0.004,0.004,0.01,0.008,0.016,0.012
	C518.799,48.522,518.85,48.565,518.906,48.603z"/>
<path fill="#C9C9C9" d="M421.519,31.25c0.004,0.006,0.008,0.012,0.012,0.016c0.02,0.025,0.035,0.053,0.057,0.076
	c0.018,0.018,0.033,0.035,0.051,0.053c0.049,0.053,0.105,0.096,0.16,0.143c0.044,0.037,0.086,0.076,0.135,0.109
	c0.019,0.015,0.037,0.026,0.058,0.039c0.021,0.014,0.044,0.023,0.065,0.037c0.035,0.021,0.073,0.039,0.11,0.059
	c0.032,0.019,0.062,0.039,0.095,0.056l0.033,0.015c0.004,0.002,0.008,0.004,0.012,0.006l8.021,3.596
	c0.267,0.119,0.548,0.178,0.822,0.178c0.772,0,1.507-0.443,1.842-1.191c0.392-0.871,0.109-1.869-0.618-2.424h24.54
	c1.115,0,2.018-0.902,2.018-2.017c0-1.115-0.904-2.017-2.018-2.017h-24.537c0.725-0.556,1.007-1.552,0.616-2.422
	c-0.456-1.016-1.65-1.467-2.665-1.016l-8.064,3.613c-0.039,0.018-0.072,0.043-0.109,0.063c-0.055,0.029-0.109,0.056-0.161,0.089
	c-0.019,0.013-0.036,0.024-0.056,0.036c-0.043,0.031-0.08,0.067-0.121,0.1c-0.043,0.034-0.086,0.066-0.127,0.105
	c-0.017,0.016-0.032,0.032-0.049,0.049c-0.039,0.041-0.074,0.088-0.109,0.132c-0.031,0.038-0.064,0.072-0.092,0.112
	c-0.015,0.021-0.027,0.041-0.041,0.062c-0.035,0.053-0.062,0.109-0.09,0.165c-0.004,0.006-0.007,0.012-0.01,0.017
	c-0.015,0.03-0.035,0.056-0.05,0.087c-0.002,0.004-0.002,0.009-0.004,0.014c-0.009,0.021-0.017,0.042-0.026,0.063
	c-0.025,0.064-0.042,0.131-0.062,0.197c0,0.001,0,0.002,0,0.003c-0.013,0.042-0.03,0.083-0.039,0.125
	c-0.005,0.016-0.007,0.029-0.009,0.046c-0.012,0.065-0.016,0.135-0.021,0.202c-0.005,0.053-0.014,0.104-0.016,0.156
	c0,0.006-0.002,0.013-0.002,0.02c0,0.005,0.002,0.009,0.002,0.016c0,0.063,0.012,0.129,0.019,0.194
	c0.007,0.056,0.009,0.11,0.019,0.165c0.004,0.014,0.004,0.027,0.008,0.042c0.012,0.056,0.033,0.108,0.051,0.164
	c0.016,0.058,0.029,0.112,0.051,0.166c0.008,0.019,0.014,0.037,0.021,0.056c0.004,0.006,0.005,0.014,0.008,0.021
	c0.008,0.018,0.021,0.029,0.029,0.047c0.011,0.021,0.022,0.041,0.033,0.063c0.028,0.053,0.055,0.108,0.088,0.16
	C421.435,31.15,421.478,31.201,421.519,31.25z"/>
</svg>
